<?xml version="1.0" standalone="no"?>
<!DOCTYPE svg PUBLIC "-//W3C//DTD SVG 1.1//EN" "http://www.w3.org/Graphics/SVG/1.1/DTD/svg11.dtd" >
<svg xmlns="http://www.w3.org/2000/svg">
<metadata>Generated by IcoMoon</metadata>
<defs>
<font id="youmate" horiz-adv-x="1024">
<font-face units-per-em="1024" ascent="960" descent="-64" />
<missing-glyph horiz-adv-x="1024" />
<glyph unicode="&#x20;" horiz-adv-x="512" d="" />
<glyph unicode="&#xe900;" glyph-name="adventure" horiz-adv-x="1591" d="M1005.311 305.245h147.221l-120.168 407.399-253.379-71.184-22.957-223.394 71.608 16.118c7.853 2.11 16.031 3.246 23.782 3.246 22.72 0 42.629-9.514 59.218-28.282zM900.495 398.352c-17.731 22.615-41.442 26.536-68.969 19.16l-83.379-17.827c-2.658-0.554-5.426 0.249-7.435 2.054-2.014 1.825-3.042 4.5-2.765 7.209l24.581 240.012c0.353 3.489 2.602 5.404 5.974 6.375l267.33 78.941c4.517 1.257 9.24-1.302 10.562-5.816l125.79-429.37c0.768-2.576 0.268-5.384-1.356-7.542-1.621-2.155-4.164-3.426-6.856-3.426h-162.534c-2.466 0-4.808 1.054-6.429 2.91zM770.901 655.677c1.975 0 3.921-0.689 5.477-1.983 2.192-1.822 3.328-4.616 3.045-7.449l-24.584-239.789c-0.379-3.627-3.138-5.935-6.692-6.771l-156.659-37.544c-10.519-3.565-21.013-9.299-30.428-16.824l-343.768-322.337c-8.669-6.957-12.641-15.838-12.641-27.561 0-11.923 4.096-21.406 12.517-28.999 8.881-7.977 18.79-12.293 30.296-13.194 10.579-0.754 20.143 2.876 28.606 11.373l258.424 243.029c1.104 1.037 2.458 1.754 3.929 2.107l310.413 72.314c0.901 0.669 1.963 1.172 3.124 1.441l52.264 12.291c2.943 0.785 6.096-0.234 8.195-2.46l49.151-52.244c6.421-6.404 14.5-9.616 24.502-9.616l169.218-3.042c7.81 0 14.901 3.195 21.508 9.782 6.553 6.556 9.748 13.629 9.748 21.59 0 9.147-2.556 22.061-24.632 28.697-2.777 0.819-4.949 3.014-5.754 5.788l-126.030 430.356c-0.636 2.181-0.387 4.52 0.709 6.52 1.088 1.991 2.926 3.472 5.11 4.107l525.646 153.701c8.98 3.901 13.497 8.384 12.477 12.983-0.438 1.983-1.774 8.028-17.443 10.279-174.932 20.335-448.686 30.654-813.388 30.654-259.378 0-499.907-9.76-715.262-29.008 63.65-61.419 332.588-320.989 376.521-364.703l364.002 106.172c0.794 0.234 1.596 0.342 2.398 0.342zM250.331-64c-1.378 0-2.777 0.051-4.181 0.15-15.203 1.189-28.798 7.093-40.428 17.545-12.076 10.87-18.197 24.917-18.197 41.725 0 17.025 6.246 30.654 18.57 40.504l343.768 322.337c11.497 9.214 23.756 15.92 36.951 20.335l151.611 35.671 22.66 221.066-356.66-104.050c-3.045-0.802-6.288-0.014-8.494 2.226-32.982 33.445-389.707 377.558-393.312 381.027-2.41 2.325-3.246 5.836-2.133 8.997 1.104 3.161 3.955 5.384 7.291 5.692 220.606 20.423 468.058 30.776 735.464 30.776 365.372 0 639.778-10.361 815.594-30.798 22.878-3.28 29.985-14.624 31.959-23.564 2.090-9.483-0.266-22.869-23.429-32.77l-518.39-151.642 122.352-417.836c26.592-9.734 32.344-28.866 32.344-43.6 0-12.559-4.966-23.898-14.785-33.714-9.85-9.819-21.206-14.785-33.747-14.785l-169.22 3.042c-14.415 0-26.79 4.986-36.634 14.816l-45.956 48.837-41.225-9.7c-0.918-0.686-1.989-1.189-3.169-1.472l-314.382-73.232-256.551-241.274c-10.737-10.757-23.471-16.307-37.671-16.307zM941.216 565.867c-9.926 0-19.909-2.322-29.66-6.938-17.519-8.313-29.157-20.821-35.572-38.267-6.353-17.256-4.991-34.081 4.155-51.459 9.333-17.708 22.395-29.465 39.939-35.923 7.534-2.757 15.149-4.164 22.618-4.164 9.624 0 19.443 2.342 29.166 6.957 17.482 8.262 29.109 21.239 35.538 39.651 6.438 18.398 5.579 35.321-2.65 51.744-8.254 16.525-21.256 27.714-39.736 34.168-8.020 2.808-16.031 4.229-23.799 4.229zM942.697 411.99v0c-9.491 0-19.090 1.757-28.533 5.22-21.389 7.875-37.937 22.674-49.174 43.999-11.381 21.624-13.087 43.617-5.076 65.374 7.918 21.542 22.835 37.629 44.318 47.829 21.457 10.135 43.951 11.291 66.444 3.381 22.567-7.878 39.191-22.242 49.391-42.665 10.262-20.485 11.44-42.377 3.506-65.054-7.909-22.643-22.844-39.284-44.377-49.487-12.033-5.7-24.316-8.596-36.499-8.596z" />
<glyph unicode="&#xe901;" glyph-name="animal" horiz-adv-x="1119" d="M698.066 739.698c-47.498-26.137-103.186-36.555-156.393-43.635-49.362-6.572-99.282-9.169-149.048-9.757-13.971-0.166-27.943-0.099-41.909 0.211-2.435 0.054-4.87 0.121-7.305 0.202 5.598-0.189-4.51 3.5-6.173 4.16-6.846 2.718-13.688 4.856-20.827 6.649-40.827 10.256-87.166 6.685-128.172-1.357 5.526-3.14 11.056-6.276 16.577-9.416-12.619 54.344-44.178 108.805-87.462 143.99-24.084 19.578-59.771 42.493-90.49 28.010-24.021-11.33-40.27-51.874-11.604-68.99 26.469-15.809 47.907-40.337 62.175-67.39 6.55-12.426 18.679-40.643 13.872-54.609-3.931-11.415-6.932-23.154-9.704-34.892-21.914-92.952-21.267-213.141 25.818-293.361 11.599-19.757 9.888-42.309-0.279-62.21-7.004-13.706-18.908-21.86-27.934-34.061-21.294-28.778-11.123-59.219-4.686-90.571 8.531-41.541 19.479-82.723 33.783-122.655 11.595-32.372 22.372-63.051 53.904-79.884 28.45-15.189 64.358-15.481 86.123 9.897 17.812 20.773 10.795 63.244-17.327 72.381 1.559-0.508-0.782 0.314-3.297 1.828-2.686 1.608-4.843 3.765-7.040 5.984-9.982 10.108-15.171 24.461-19.142 37.758-9.654 32.3-11.784 71.034-10.315 104.461 1.366 31.006 29.798 34.919 51.739 46.599 15.395 8.199 29.501 18.994 42.669 30.351 53.356 46.024 80.692 113.221 74.834 183.357l-13.477-13.477c41.941 0.777 77.848-26.168 112.862-45.265 49.537-27.017 107.916-44.753 164.336-33.54-5.692 4.331-11.375 8.661-17.062 12.992-4.349-48.185-7.071-96.658-7.332-145.041-0.108-20.539 3.419-41.613 1.801-61.986-1.563-19.771-1.164-39.69 0.386-59.443 4.16-52.808 21.438-125.962 71.299-155.171 12.39-7.26 34.636-6.429 48.033-4.385 23.284 3.562 37.992 19.452 36.685 43.437-0.252 4.582-2.345 9.452-6.676 11.64-12.085 6.096-24.196 14.241-32.197 25.315-6.164 8.518-3.805 17.403-4.56 23.792-3.607 30.476-5.238 61.195-5.44 91.869-0.283 43.684 3.131 87.75 14.924 129.942 5.292 18.917 13.163 36.779 24.174 53.051 5.898 8.711 14.766 14.677 22.772 21.864 31.438 28.23 61.092 63.275 76.429 103.064 10.894 28.248 8.248 48.446 6.887 77.417-1.712 36.59-2.147 74.951 7.484 110.553 4.991 18.45 23.028 40.557 36.86 54.039 14.43 14.070 32.83 17.233 51.065 8.657 10.377-4.879 17.763-12.727 28.567-16.819 31.546-11.954 83.316 5.539 105.724 28.473 11.465 11.73 20.584 25.979 27.112 40.944 7.336 16.815 5.508 32.282 7.426 47.678 1.491 11.977-2.588 24.205-14.196 29.403-3.118 1.393-6.914 2.561-10.386 2.453 0.925 0.027-12.385 0.265-6.617-1.536-5.139 1.604-10.283 3.212-15.422 4.82-15.957 4.982-31.909 9.973-47.862 14.955-4.856 1.518-9.713 3.037-14.569 4.555 4.816-1.505 9.173-9.641 3.509 0.234-18.446 32.13-42.053 62.646-70.917 86.007-23.347 18.899-47.089 28.428-76.631 26.528-38.122-2.457-71.649-19.546-94.039-50.683-6.056-8.432-2.287-9.771-9.524-14.807-7.875-5.481-15.409-11.474-22.767-17.615-20.225-16.882-38.289-37.103-50.741-60.405-19.704-36.873-13.266-77.579 15.014-107.292 15.62-16.42 39.111-23.536 61.272-20.027 21.671 3.423 33.289 9.996 44.511 27.354 22.853 35.346 61.361 92.13 47.475 136.523-5.171 16.527-31.195 9.47-25.988-7.165 10.135-32.399-21.258-77.269-37.134-103.563-5.054-8.374-10.35-16.626-15.912-24.672 0.984 1.42-14.281-1.514-14.964-1.671-5.13-1.181-11.204-1.119-16.406-0.364-9.299 1.348-17.12 6.312-23.796 12.642-51.986 49.335 14.564 117.197 57.139 145.787 4.668 3.131 6.518 6.226 9.030 11.442 5.207 10.791 13.059 19.605 21.995 27.408 14.699 12.848 35.813 18.468 54.839 20.153 5.701 0.503 11.456 0.49 17.17 0.279 1.581-0.058 11.509-1.159 4.542-0.193 23.028-3.199 44.663-25.050 59.83-40.921 13.311-13.922 24.654-29.618 35.072-45.777 4.304-6.671 8.612-19.209 15.885-23.473 8.711-5.103 20.822-6.86 30.324-9.829 15.939-4.978 31.873-9.96 47.812-14.942 8.711-2.722 18.073 4.542 14.924-6.725-2.7-9.663 0.382-20.274-2.493-30.557-3.378-12.080-11.379-23.572-19.286-33.127-16.173-19.537-64.412-39.699-88.877-23.581-3.293 2.17 7.911-6.011-1.024 0.764-5.193 3.944-10.328 7.412-16.011 10.62-7.952 4.492-17.296 7.444-26.357 8.369-17.952 1.842-34.569-3.594-48.962-14.259-10.66-7.902-19.191-18.028-26.554-28.994-1.649-2.457-3.163-5.027-4.542-7.646 3.711 7.040 0.305 1.388-2.278-0.872-3.050-2.668-5.413-6.298-7.736-9.573-19.070-26.878-19.304-68.697-20.117-100.144-0.705-27.251 0.571-54.695 3.27-81.824 1.774-17.839-12.076-40.418-20.647-55.148-12.197-20.961-28.414-39.407-45.481-56.501-23.998-24.034-37.228-30.49-52.646-62.705-32.044-66.954-31.833-149.268-27.439-221.789 1.137-18.742 2.92-37.457 5.503-56.060 3.836-27.696 22.871-46.092 48.383-58.971-2.228 3.881-4.452 7.763-6.676 11.64 1.177-21.501-23.859-18.625-39.236-16.11-15.463 2.529-28.086 23.077-37.197 38.832-23.19 40.095-27.871 90.315-26.9 135.76 1.595 74.812-0.386 149.205 6.37 224.107 0.836 9.308-9.182 14.564-17.062 13.001-52.565-10.449-108.945 9.946-153.864 36.658-34.659 20.607-74.124 43.886-116.164 43.109-6.878-0.126-14.102-6.051-13.477-13.477 6.496-77.741-31.9-147.018-98.073-186.973-7.502-4.533-14.753-5.867-23.005-9.151-17.336-6.896-31.891-18.94-40.665-35.476-12.255-23.095-6.397-54.479-5.35-79.385 1.505-35.696 7.606-76.272 30.521-105.108 5.162-6.491 11.217-12.116 18.351-16.397 10.027-6.020 7.484-2.907 14.088-13.567 8.437-13.621-5.063-24.515-16.002-30.023-13.742-6.927-41.999 7.35-53.033 17.206-9.106 8.14-15.112 25.27-21.761 41.977-9.596 24.088-17.004 49.057-23.805 74.057-8.001 29.412-18.58 62.556-22.314 92.889-2.129 17.282 5.418 33.522 17.633 45.27 3.365 3.235 3.473 2.48 9.847 10.234 8.989 10.939 15.072 23.374 19.457 36.739 11.635 35.512-8.949 60.764-20.22 90.989-22.637 60.679-27.417 126.618-21.379 190.666 3.014 31.959 9.367 64.461 19.838 94.875 4.888 14.191-2.722 36.941-6.959 50.575-6.487 20.885-18.154 39.47-31.55 56.532-9.901 12.606-21.864 23.585-34.524 33.351-9.811 7.565-16.038 8.684-17.233 18.747-0.876 7.399 7.763 11.86 13.104 14.708 1.941 1.033 3.976 1.73 6.042 2.435 3.756 1.289 1.128-0.656 1.047-0.633 23.495-6.069 44.439-19.313 62.237-35.481 34.066-30.944 58.635-77.435 69.034-122.206 1.752-7.547 9.609-10.782 16.577-9.416 41.734 8.185 89.097 10.571 129.695-3.315 11.819-4.043 17.314-7.138 29.277-7.376 16.703-0.337 33.41-0.252 50.113 0.036 100.944 1.743 216.838 7.188 307.176 56.901 15.234 8.383 1.64 31.658-13.598 23.275zM826.494 448.299c1.375-49.614 3.931-99.219 7.26-148.734 2.619-38.9 5.903-77.772 10.768-116.456 3.536-28.127 6.936-57.467 16.685-84.259 2.817-7.749 6.312-14.51 12.053-20.436 8.545-8.819 30.854-27.094 31.721-39.811 1.532-22.525-31.775-8.845-45.485-1.164-4.371 2.448-14.623 8.607-13.841 6.078-0.687 2.224-1.375 4.438-2.058 6.658-3.136 10.121-6.267 20.238-9.394 30.36-9.883 31.927-19.766 63.864-29.645 95.796-15.598 50.418-31.2 100.836-46.802 151.254-5.117 16.554-31.141 9.483-25.988-7.165 29.434-95.135 58.873-190.266 88.307-285.401 5.202-16.806 39.084-28.733 54.632-33.985 12.925-4.376 28.149-4.389 39.888 3.077 13.226 8.41 20.364 27.776 15.957 42.812-7.453 25.463-36.806 41.096-44.156 61.299-10.108 27.776-13.068 58.855-16.523 87.997-9.892 83.522-14.097 168.029-16.424 252.081-0.481 17.345-27.435 17.395-26.954 0zM238.448 239.537c3.729-59.794 13.917-124.075 41.73-177.629 15.198-29.259 39.942-36.074 71.761-39.317 29.47-3.001 63.513 8.351 68.72 40.216 5.692 34.879-26.357 41.954-43.113 64.331-30.485 40.714-34.731 85.176-23.724 133.747 3.001 13.253 10.674 21.599 15.714 33.257 5.49 12.695 10.544 25.571 15.283 38.567 11.128 30.508 24.829 67.871 17.35 100.701-3.859 16.945-29.843 9.757-25.988-7.165 6.213-27.269-8.356-61.101-17.35-86.371-7.332-20.593-18.136-36.999-26.325-56.541-27.053-64.609-8.715-137.256 36.271-187.898 8.733-9.829 25.121-9.115 25.647-25.71 0.413-12.947-7.511-14.87-17.88-18.266-17.48-5.719-37.525-0.746-54.331 4.933-12.336 4.173-15.009 11.891-21.042 23.513-24.524 47.219-32.489 106.991-35.768 159.632-1.074 17.26-28.037 17.368-26.954 0z" />
<glyph unicode="&#xe902;" glyph-name="beach" horiz-adv-x="1740" d="M1703.239 1.521c-53.825-24.17-129.339-16.33-186.766-16.299-68.064 0.032-135.119-1.002-201.212 17.594-134.070 37.725-251.53 146.059-287.252 282.021-18.254 69.488-6.758 142.354 25.299 205.839 35.817 70.95 101.957 143.61 181.224 162.763 91.407 22.087 198.914-35.435 265.412-95.152 17.348-15.591 46.383-0.7 39.856 23.2-35.483 130.023-117.389 249.94-241.29 309.363-136.248 65.345-303.090 88.664-450.079 51.329-123.193-31.293-240.233-104.883-322.99-200.464-67.619-78.122-123.933-165.458-161.809-261.739-33.718-85.707-39.037-175.627-56.202-264.975-27.087-141.114-143.332-226.86-284.366-228.951-30.729-0.461-30.776-48.164 0-47.703 155.448 2.314 283.317 91.685 325.542 243.182 22.603 81.063 23.128 166.269 47.727 247.444 32.446 107.093 97.020 202.977 169.672 286.894 85.206 98.419 212.859 167.35 340.719 190.152 99.922 17.817 202.905-0.7 298.423-30.816 45.254-14.279 75.856-25.982 114.67-51.4 89.427-58.563 146.282-153.469 173.989-254.989 13.285 7.728 26.579 15.464 39.864 23.2-82.495 74.099-199.709 128.926-311.819 107.427-86.207-16.529-155.115-95.033-199.208-165.975-41.247-66.347-58.683-147.689-47.496-224.952 22.905-158.080 145.932-280.741 289.637-338.771 74.735-30.188 152.221-31.412 231.463-32.12 70.418-0.62 159.996-9.207 226.057 20.449 1.67 0.755 3.339 1.511 5.017 2.25 28.026 12.586 3.737 53.682-24.082 41.2zM485.296 425.22c73.566 161.229 209.297 338.986 389.098 381.569 29.926 7.084 17.229 53.086-12.681 46.002-191.544-45.366-339.026-231.265-417.617-403.497-12.657-27.763 28.447-52.028 41.2-24.074z" />
<glyph unicode="&#xe903;" glyph-name="chat" horiz-adv-x="1173" d="M1098.567-9.229l-29.698 10.798c-1.428 0.521-138.756 50.483-206.479 77.938-68.877-35.988-212.295-60.741-302.852-60.741-4.108 0-8.081 0.055-11.907 0.158-152.087 4.244-295.923 68.869-384.762 172.878-72.361 84.715-103.131 187.094-88.985 296.070 31.942 246.050 224.33 398.901 502.080 398.901 2.967 0 5.999-0.018 8.991-0.051 134.794-1.542 251.624-33.065 337.852-91.159 94.827-63.883 152.953-157.348 172.764-277.797 15.538-94.474-11.62-205.448-70.991-291.551l73.987-235.443zM860.253 114.128l7.104-2.926c46.393-19.121 135.91-52.307 182.453-69.409l-59.661 189.87 4.556 6.344c57.848 80.471 84.693 185.728 70.063 274.695-35.841 217.923-206.369 339.665-480.168 342.804-2.871 0.033-5.786 0.048-8.635 0.048-260.832 0-441.354-142.427-471.122-371.699-12.982-99.978 15.292-193.956 81.763-271.773 83.199-97.404 218.485-157.946 361.892-161.945 3.547-0.099 7.229-0.151 11.036-0.151 89.532 0 234.313 25.788 294.062 60.3l6.656 3.84z" />
<glyph unicode="&#xe904;" glyph-name="culture" horiz-adv-x="1270" d="M48.046 499.68c-1.651-0.032-1.946 0.018-3.583 0.066s-3.716 0.121-5.844 0.206c-2.128 0.086-4.291 0.183-6.158 0.297s-2.436-0.046-5.349 0.57c-5.466 1.187-9.5 5.983-9.5 11.721 0 4.004 1.964 7.55 4.982 9.725 0.035 0.024 151.376 108.231 303.769 216.777 76.196 54.273 152.654 108.634 210.603 149.601 28.975 20.483 53.314 37.615 70.71 49.735 8.698 6.060 15.654 10.86 20.629 14.231 2.487 1.686 4.469 3.007 6.001 3.995 0.766 0.494 1.413 0.903 2.047 1.279s0.081 0.523 3.327 1.552c1.082 0.356 2.328 0.561 3.622 0.561 1.619 0 3.163-0.321 4.572-0.903 3.258-1.324 1.844-0.95 2.067-1.094s0.404-0.265 0.611-0.404c0.414-0.278 0.918-0.622 1.56-1.065 1.283-0.886 3.094-2.15 5.423-3.781 4.66-3.262 11.385-7.99 19.894-13.992 17.017-12.003 41.157-29.078 70.050-49.537 57.786-40.918 134.564-95.371 211.256-149.782 153.384-108.823 306.416-217.504 306.416-217.504 3.068-2.198 5.044-5.753 5.044-9.768 0-5.995-4.404-10.962-10.153-11.842-0.074-0.010-1.474-0.129-1.602-0.132s-0.216-0.007-0.322-0.008c-0.211-0.003-0.457-0.006-0.776-0.008-0.638-0.005-1.545-0.004-2.724-0.008-2.358-0.009-5.811-0.024-10.294-0.033-8.965-0.017-22.040-0.033-38.657-0.050-33.233-0.034-80.6-0.068-137.384-0.099-113.568-0.061-264.81-0.111-415.99-0.157-302.244-0.092-604.017-0.149-604.248-0.149zM65.769 523.644c17.156 0.003 293.139 0.051 586.516 0.14 151.179 0.046 302.417 0.104 415.982 0.165 56.782 0.031 104.15 0.065 137.376 0.099 6.502 0.007 9.739 0.010 15.123 0.017-26.083 18.522-137.788 97.855-275.89 195.836-76.689 54.409-153.465 108.856-211.239 149.766-28.887 20.455-53.023 37.525-70.017 49.512-8.497 5.993-15.214 10.72-19.828 13.951-0.323 0.226-0.441 0.3-0.743 0.512-0.507-0.341-0.739-0.484-1.304-0.867-4.811-3.26-11.719-8.029-20.373-14.058-17.308-12.058-41.626-29.169-70.578-49.636-57.904-40.934-134.345-95.286-210.529-149.551-137.716-98.093-249.444-177.977-274.495-195.885zM1180.237-7.798h-1136.111c-4.522 0-8.182 2.612-8.182 5.845s3.66 5.845 8.182 5.845h1136.111c4.522 0 8.182-2.612 8.182-5.845s-3.66-5.845-8.182-5.845zM44.123 0.158c-1.035 0-2.194-0.904-2.194-2.109 0-1.209 1.158-2.113 2.194-2.113h1136.115c1.031 0 2.189 0.904 2.189 2.113 0 1.205-1.158 2.109-2.189 2.109h-1136.115zM1180.239-11.533h-1136.115c-7.815 0-14.175 4.298-14.175 9.581 0 5.279 6.361 9.577 14.175 9.577h1136.115c7.815 0 14.171-4.298 14.171-9.577 0-5.283-6.357-9.581-14.171-9.581zM1180.237-1.871h-1133.474c-3.026 0-3.026-0.165 0-0.165h1129.497c1.982 0 5.824 0.735 1.771-0.046-10.321-1.991-5.934-13.427 4.412-11.432 19.163 3.698 17.899 23.334-3.212 23.334h-1134.712c-21.403 0-21.762-23.545-0.33-23.545h1136.048c10.701 0 10.701 11.855 0 11.855zM44.518 6.085c-8.085 0-10.241-5.144-10.241-8.182 0-2.933 2.088-7.895 9.911-7.895h1122.405c-0.156 0.444-0.275 0.9-0.347 1.365-0.161 0.989-0.11 1.948 0.127 2.857h-1119.611c-6.826 0-8.258 2.075-8.258 3.816s1.433 3.816 8.258 3.816l1131.407 0.025c0.879 0.11 1.492 0.123 1.636 0.123h5.144l0.038-0.148h4.121c-1.103 1.864-3.715 4.222-9.877 4.222h-1134.712zM1179.868-9.992l0.452-0.008c0.114 0.013 0.228 0.030 0.351 0.051 0.144 0.030 0.287 0.059 0.431 0.089 0.85 0.368 1.475 1.686 1.019 2.937-0.482 1.319-1.462 1.319-1.885 1.319l-0.435-0.042c-1.741-0.338-1.724-1.678-1.631-2.24 0.178-1.137 1.090-1.965 1.699-2.105zM1180.088-17.481c-0.325 0-0.642 0.008-0.955 0.021h-1134.945c-14.374 0-21.889 7.73-21.889 15.363 0 7.777 7.629 15.65 22.218 15.65h1134.712c11.39 0 20.109-4.586 22.265-11.69l0.473-3.187c0.008-6.137-5.059-12.738-16.090-15.397-1.179-0.334-2.439-0.554-3.749-0.664-0.702-0.068-1.382-0.097-2.041-0.097zM1211.848-54.316h-1189.005c-4.734 0-8.567 2.612-8.567 5.845s3.833 5.845 8.567 5.845h1189.005c4.734 0 8.563-2.612 8.563-5.845s-3.829-5.845-8.563-5.845zM22.841-46.361c-1.082 0-2.295-0.904-2.295-2.109 0-1.209 1.213-2.113 2.295-2.113h1189.005c1.082 0 2.295 0.904 2.295 2.113 0 1.205-1.213 2.109-2.295 2.109h-1189.005zM1211.846-58.051h-1189.005c-8.178 0-14.835 4.298-14.835 9.581 0 5.279 6.657 9.577 14.835 9.577h1189.005c8.178 0 14.835-4.298 14.835-9.577 0-5.283-6.657-9.581-14.835-9.581zM1211.848-48.389h-1186.249c-3.161 0-3.161-0.165 0-0.165h1182.086c2.071 0 6.099 0.735 1.855-0.046-10.803-1.991-6.213-13.427 4.615-11.432 20.054 3.698 18.736 23.334-3.36 23.334h-1187.543c-22.4 0-22.776-23.545-0.347-23.545h1188.942c11.2 0 11.2 11.855 0 11.855zM23.254-40.433c-8.461 0-10.718-5.144-10.718-8.182 0-2.933 2.185-7.895 10.372-7.895h1174.661c-0.161 0.444-0.287 0.9-0.363 1.365-0.165 0.989-0.114 1.948 0.135 2.857h-1171.74c-7.143 0-8.639 2.075-8.639 3.816s1.496 3.816 8.639 3.816l1184.081 0.025c0.921 0.11 1.564 0.123 1.716 0.123h5.384l0.038-0.148h4.311c-1.154 1.864-3.888 4.222-10.338 4.222h-1187.538zM1211.464-56.511l0.469-0.008c0.123 0.013 0.241 0.030 0.368 0.051 0.152 0.030 0.3 0.059 0.452 0.089 0.888 0.368 1.543 1.686 1.065 2.937-0.503 1.319-1.53 1.319-1.97 1.319l-0.461-0.042c-1.822-0.338-1.8-1.678-1.707-2.24 0.19-1.137 1.145-1.965 1.784-2.105zM1211.688-64c-0.334 0-0.668 0.008-0.997 0.021h-1187.784c-15.042 0-22.907 7.73-22.907 15.363 0 7.777 7.988 15.65 23.254 15.65h1187.538c11.923 0 21.048-4.586 23.305-11.69l0.494-3.187c0.008-6.137-5.296-12.738-16.842-15.397-1.234-0.334-2.549-0.554-3.922-0.664-0.731-0.068-1.445-0.097-2.139-0.097zM1119.551 25.495c0-23.089-7.912-41.808-17.675-41.808-9.759 0-17.671 18.719-17.671 41.808v448.86c0 23.093 7.912 41.812 17.671 41.812 9.763 0 17.675-18.719 17.675-41.812v-448.86zM803.294 25.495c0-23.089-7.912-41.808-17.671-41.808-9.763 0-17.675 18.719-17.675 41.808v448.86c0 23.093 7.912 41.812 17.675 41.812 9.759 0 17.671-18.719 17.671-41.812v-448.86zM487.038 25.495c0-23.089-7.912-41.808-17.671-41.808-9.763 0-17.675 18.719-17.675 41.808v448.86c0 23.093 7.912 41.812 17.675 41.812 9.759 0 17.671-18.719 17.671-41.812v-448.86zM170.782 25.495c0-23.089-7.912-41.808-17.675-41.808-9.759 0-17.671 18.719-17.671 41.808v448.86c0 23.093 7.912 41.812 17.671 41.812 9.763 0 17.675-18.719 17.675-41.812v-448.86z" />
<glyph unicode="&#xe905;" glyph-name="edit" d="M979.645 703.374c50.44 53.878 61.108 137.533 14 197.672-48.233 61.596-130.571 76.028-198.174 38.081-44.851-25.178-83.025-76.771-118.672-112.291-151.802-151.257-303.61-302.514-455.419-453.764-28.262-28.156-56.524-56.319-84.786-84.475-12.875-12.833-23.253-21.895-29.627-39.128-35.322-95.405-70.645-190.81-105.96-286.214-5.32-14.368 11.489-31.927 26.104-26.111 81.058 32.259 162.116 64.525 243.167 96.784 20.523 8.164 58.201 15.125 74.486 31.495 11.425 11.482 22.85 22.963 34.282 34.445 144.819 145.527 289.646 291.046 434.472 436.566 55.378 55.654 110.749 111.294 166.127 166.941 19.32 19.412-10.689 49.429-30.009 30.009-113.331-113.869-226.648-227.738-339.973-341.614-73.297-73.644-146.595-147.295-219.892-220.946-20.869-20.968-41.732-41.937-62.608-62.912-3.926-3.947-7.867-7.902-11.793-11.857-4.351-4.365 13.47 6.593 6.933 3.997-5.002-1.995-10.003-3.983-15.005-5.978-97.159-38.661-194.311-77.33-291.471-115.991 8.701-8.709 17.403-17.41 26.104-26.111 30.582 82.607 61.172 165.222 91.754 247.836 5.263 14.227 10.534 28.453 15.797 42.687 4.499 12.133-10.067-11.008 0.276-0.7 16.016 15.96 32.033 31.92 48.049 47.879 148.484 147.939 296.967 295.878 445.451 443.824 47.37 47.193 94.74 94.393 142.11 141.586 23.699 23.607 49.131 41.031 84.291 43.394 100.47 6.756 143.362-117.378 79.976-185.094-18.683-19.957 11.269-50.030 30.009-30.009zM80.973 112.118c33.186-31.269 66.379-62.537 99.572-93.799 19.907-18.754 49.973 11.206 30.009 30.009-33.186 31.269-66.379 62.537-99.572 93.799-19.9 18.754-49.973-11.206-30.009-30.009zM717.638 840.598c61.986-62.934 123.971-125.86 185.964-188.793 19.228-19.518 49.23 10.505 30.009 30.017-61.986 62.926-123.971 125.86-185.964 188.786-19.228 19.525-49.23-10.505-30.009-30.009zM125.029 237.088c63.174-57.295 126.341-114.583 189.515-171.872 20.219-18.337 50.327 11.588 30.009 30.009-63.167 57.295-126.341 114.583-189.515 171.872-20.219 18.344-50.327-11.588-30.009-30.009zM316.866 174.966c174.595 174.093 349.183 348.193 523.779 522.293 19.398 19.341-10.619 49.358-30.009 30.009-174.595-174.093-349.19-348.193-523.779-522.293-19.398-19.341 10.612-49.351 30.009-30.009zM265.977 225.996c175.762 175.31 351.518 350.627 527.273 525.936 19.398 19.348-10.619 49.358-30.009 30.009-175.762-175.31-351.518-350.619-527.273-525.936-19.398-19.348 10.619-49.358 30.009-30.009z" />
<glyph unicode="&#xe906;" glyph-name="gastronomy" horiz-adv-x="1690" d="M1147.566 611.213c57.135-29.062 108.977-71.826 154.37-116.494 100.483-98.876 168.191-227.584 181.455-368.836 1.438-15.315 25.511-15.455 24.067 0-13.669 145.545-80.938 276.561-182.808 380.156-47.685 48.489-103.915 94.91-164.932 125.955-13.798 7.017-25.983-13.742-12.152-20.781zM1154.040 624.995c-1.882 0-3.612-1.927-4.039-3.725-0.27-1.112-0.129-1.775 1.382-2.545 50.916-25.899 102.090-64.494 156.46-118 105.73-104.039 171.056-236.881 183.938-374.055 0.354-3.708 4.034-3.899 4.77-3.899 1.152 0 1.989 0.348 2.287 0.669 0.219 0.242 0.303 0.86 0.23 1.657-13.011 138.55-75.404 268.235-180.426 375.033-54.264 55.185-109.017 97.017-162.741 124.354-0.669 0.337-1.292 0.511-1.86 0.511zM1496.55 105.918v0c-9.815 0-20.365 6.59-21.545 19.18-12.517 133.219-76.078 262.359-178.983 363.617-53.123 52.275-102.932 89.887-152.275 114.988-8.281 4.208-12.258 12.646-10.14 21.5 2.315 9.64 10.91 16.646 20.433 16.646 3.242 0 6.438-0.792 9.494-2.348 55.354-28.157 111.584-71.073 167.118-127.556 107.781-109.595 171.82-242.82 185.19-385.274 0.528-5.601-1.090-10.781-4.545-14.579-3.579-3.921-8.949-6.174-14.747-6.174zM1611.882 39.975c-0.657 179.174-63.281 352.072-177.095 490.353-111.837 135.87-271.297 229.336-443.69 263.145-177.483 34.809-364.134 4.062-521.931-83.73-152.455-84.814-271.387-222.505-337.168-383.578-36.983-90.567-54.854-188.499-55.213-286.19-0.022-6.556 5.489-12.034 12.039-12.034h1511.018c15.522 0 15.522 24.067 0 24.067h-1511.018c4-4.011 8.017-8.022 12.022-12.034 0.674 183.331 68.326 360.521 190.662 497.173 120.539 134.657 289.634 221.263 469.038 241.713 182.898 20.859 368.342-28.545 517.948-135.202 146.236-104.258 249.679-262.246 290.494-436.667 12.815-54.741 18.624-110.848 18.831-167.016 0.056-15.517 24.118-15.517 24.062 0zM109.631 60.436h1469.434c-1.449 50.359-7.59 98.977-18.281 144.634-40.517 173.134-145.191 330.493-287.185 431.729-125.118 89.196-277.977 138.325-430.42 138.325-27.236 0-54.719-1.556-81.68-4.635-176.797-20.157-345.808-107.253-463.718-238.966-116.073-129.657-182.702-296.64-188.151-471.089zM1595.964 60.436h3.882c1.112 0 2.202-0.079 3.264-0.236-5.146 169.219-66.82 333.55-174.831 464.774-110.241 133.932-266.084 226.353-438.808 260.224-46.916 9.202-95.208 13.871-143.522 13.871-130.123 0-258.994-33.432-372.684-96.691-148.966-82.876-267.393-217.612-333.465-379.398-33.393-81.781-51.618-170.011-54.258-262.544h7.23c5.461 178.589 73.623 349.589 192.46 482.33 120.618 134.747 293.516 223.853 474.358 244.471 27.59 3.146 55.713 4.742 83.59 4.742 155.921 0 312.252-50.241 440.212-141.46 145.275-103.573 252.37-264.539 293.808-441.611 10.977-46.899 17.27-96.809 18.725-148.471h0.039zM1596.223 43.582c0.011-1.191 0.017-2.382 0.022-3.579 0.006-2.152 1.236-3.236 3.652-3.236 0.933 0 1.82 0.23 2.449 0.635 0.787 1.118 0.949 3.084 0.337 4.534-0.427 0.989-1.067 1.646-2.837 1.646h-3.624zM85.232 43.678c-0.011-1.242-0.017-2.489-0.022-3.736-0.006-1.208 0.669-2.062 1.073-2.466 0.41-0.416 1.287-1.107 2.539-1.107h3.713l-7.303 7.309zM109.266 36.369h1470.434c-0.197 1.157-0.303 2.348-0.309 3.573-0.006 1.213-0.011 2.427-0.022 3.64h-1470.075c-0.011-1.213-0.011-2.427-0.017-3.64l-0.011-3.573zM1599.846 19.515h-1511.024c-5.444 0-10.584 2.157-14.477 6.062-3.882 3.893-6.006 9.017-5.989 14.427 0.028 6.77 0.135 13.522 0.32 20.253l-0.18 0.18h0.185c2.652 94.736 21.298 185.112 55.517 268.915 67.511 165.314 188.567 303.027 340.87 387.757 116.191 64.646 247.904 98.814 380.881 98.814 49.399 0 98.781-4.77 146.769-14.18 176.544-34.629 335.859-129.112 448.572-266.061 114.781-139.443 178.353-315.482 179.016-495.678 0.022-5.882-2.213-11.135-6.309-14.837-3.64-3.646-8.652-5.652-14.152-5.652zM856.365 795.492v71.955c0 15.511-24.062 15.511-24.062 0v-71.955c0-15.517 24.062-15.517 24.062 0zM844.333 870.654c-2.393 0-3.607-1.079-3.607-3.208v-71.955c0-2.129 1.213-3.213 3.607-3.213s3.607 1.084 3.607 3.213v71.955c0 2.129-1.213 3.208-3.607 3.208zM844.333 775.424c-11.663 0-20.461 8.629-20.461 20.067v71.955c0 11.438 8.798 20.062 20.461 20.062s20.461-8.624 20.461-20.062v-71.955c0-11.438-8.798-20.067-20.461-20.067zM20.067-55.574h1649.782c15.517 0 15.517 24.062 0 24.062h-1649.782c-15.522 0-15.522-24.062 0-24.062zM20.067-39.938c-2.135 0-3.213-1.213-3.213-3.607 0-2.388 1.079-3.601 3.213-3.601h1649.782c2.129 0 3.208 1.213 3.208 3.601 0 2.393-1.079 3.607-3.208 3.607h-1649.782zM1669.849-64h-1649.782c-11.438 0-20.067 8.792-20.067 20.455 0 11.669 8.629 20.461 20.067 20.461h1649.782c11.438 0 20.062-8.792 20.062-20.461 0-11.663-8.624-20.455-20.062-20.455zM868.319 903.46c-1.669-30.927-46.298-30.927-47.966 0-1.669 30.944 46.309 30.775 47.966 0 0.826-15.438 24.904-15.517 24.067 0-1.466 27.157-20.893 46.584-48.050 48.050-27.101 1.461-46.708-23.090-48.045-48.050-1.461-27.101 23.084-46.708 48.045-48.050 27.101-1.461 46.702 23.090 48.050 48.050 0.837 15.511-23.242 15.433-24.067 0zM876.779 903.46c0.399-2.86 3.056-3.18 4.219-3.18 0.388 0 2.213 0.062 2.77 1.163 0.079 0.674 0.135 1.348 0.174 2.017-0.034 0.669-0.090 1.326-0.157 1.983-0.528 1.101-2.236 1.191-2.787 1.191-1.163 0-3.82-0.315-4.219-3.174zM843.037 918.179c-4.528 0-8.59-1.539-11.135-4.23-2.309-2.433-3.365-5.815-3.135-10.034 0.607-11.236 8.764-15.225 15.573-15.225 6.708 0 14.736 3.876 15.534 14.77-0.871 11.601-10.949 14.719-16.837 14.719zM842.043 943.145c-21.736 0-36.309-20.837-37.337-40.135-0.545-10.073 3.522-19.685 11.444-27.067 7.652-7.135 18.095-11.551 28.646-12.118 14.949-0.848 26.64 8.169 33.18 19.809-2.348 0.315-4.674 1.011-6.831 2.067-6.213-9.152-16.68-13.865-26.803-13.865-15.27 0-31.303 10.708-32.404 31.168-0.478 8.899 2.197 16.697 7.73 22.539 5.719 6.028 14.236 9.489 23.371 9.489 10.579 0 21.494-4.725 27.955-13.893 2.236 1.124 4.663 1.843 7.112 2.163-6.815 11.629-19.028 18.972-34.219 19.792-0.618 0.034-1.23 0.051-1.843 0.051zM846.638 846.921c-0.961 0.017-1.82 0.022-2.753 0.073-14.433 0.781-28.73 6.831-39.225 16.618-11.64 10.848-17.601 25.157-16.786 40.303 1.489 27.747 23.663 57.775 56.921 56.011 29.697-1.601 51.983-22.208 55.59-51.348 0.354-1.635 0.494-3.354 0.433-5.118 0.067-1.854-0.096-3.657-0.483-5.371-3.399-24.893-23.281-51.168-53.696-51.168z" />
<glyph unicode="&#xe907;" glyph-name="heart" horiz-adv-x="1150" d="M838.136 959.998c-115.44-1.6-219.659-62.978-276.574-163.525h28.482c-85.484 150.689-276.689 207.752-428.554 121.894-77.678-43.919-132.641-122.57-153.042-208.62-21.533-90.85 0.198-196.477 41.423-278.926 2.551-5.102 8.724-8.169 14.238-8.169h245.046c5.712 0 11.44 3.123 14.238 8.169 15.118 27.229 30.236 54.457 45.353 81.691 5.783 10.423 19.070 41.813 34.82 19.631 4.425-6.234 7.691-13.749 11.413-20.412 30.571-54.666 61.142-109.338 91.713-164.004 5.695-10.181 23.106-11.308 28.482 0 50.812 106.946 101.63 213.892 152.448 320.839 6.635 13.969 24.139 38.801 34.056 11.484 9.362-25.777 18.719-51.554 28.075-77.326 20.318-55.952 40.631-111.899 60.944-167.852 2.534-6.976 8.125-12.111 15.904-12.111h260.774c5.486 0 11.726 3.068 14.238 8.169 55.776 113.224 69.646 250.087 9.247 363.74-52.94 99.624-160.683 163.69-272.725 165.328-21.28 0.313-21.253-32.671 0-32.984 100.239-1.468 188.83-56.964 240.274-142.014 61.241-101.262 45.238-234.881-5.272-337.419 4.744 2.721 9.488 5.442 14.238 8.164h-260.774c5.305-4.035 10.604-8.070 15.904-12.105-22.589 62.225-45.183 124.45-67.777 186.675-7.658 21.099-15.321 42.192-22.979 63.291-13.952 38.432-68.223 42.929-86.21 5.069-52.951-111.432-105.902-222.864-158.847-334.296h28.482c-33.908 60.636-67.816 121.267-101.724 181.903-21.187 37.882-66.942 30.159-86.040-4.255-17.504-31.517-34.996-63.039-52.495-94.561 4.744 2.721 9.494 5.448 14.238 8.169h-245.046c4.75-2.721 9.494-5.448 14.244-8.169-36.58 73.159-53.951 163.586-39.972 244.364 13.903 80.317 64.93 150.661 133.009 194.003 135.005 85.946 313.478 29.191 390.172-106.006 6.069-10.703 22.418-10.72 28.482 0 51.241 90.525 144.026 145.747 248.092 147.187 21.253 0.297 21.28 33.281 0 32.984zM838.136 927.013c21.269 0 21.269 32.984 0 32.984s-21.269-32.984 0-32.984zM771.976 378.807c-18.57 51.225-37.14 102.449-55.711 153.674-4.387 12.111-23.457 18.004-30.142 3.942-45.865-96.54-91.729-193.079-137.594-289.613-4.684-9.868-20.28-49.405-35.106-22.869-9.78 17.476-19.549 34.958-29.323 52.44-25.975 46.464-51.95 92.922-77.931 139.392-5.976 10.698-22.506 10.736-28.476 0-8.807-15.832-17.251-44.661-38.773-44.661h-220.489c-11.49 0-21.907-14.42-14.238-24.815 71.51-96.924 160.81-179.512 253.006-256.387 39.449-32.891 79.981-64.495 121.102-95.27 28.020-20.967 61.708-54.875 97.683-58.481 30.307-3.029 70.537 38.366 92.889 54.974 40.708 30.236 80.619 61.549 119.761 93.785 94.577 77.903 186.125 162.481 259.136 261.379 7.669 10.396-2.754 24.815-14.238 24.815h-210.198c-15.607 0-43.831-6.349-53.022 11.638-9.675 18.944-38.135 2.248-28.476-16.652 12.21-23.897 32.995-27.971 57.151-27.971h234.546c-4.75 8.274-9.494 16.542-14.244 24.815-66.54-90.135-150.205-167.258-235.503-239.29-38.053-32.143-77.156-63.044-116.902-93.065-14.98-11.314-30.093-22.44-45.282-33.468-12.386-8.988-29.812-26.387-45.617-27.976-12.336-1.231-32.314 18.345-41.703 25.107-14.854 10.687-29.57 21.566-44.221 32.528-39.383 29.477-77.914 60.092-115.698 91.592-87.716 73.143-173.657 152.36-241.693 244.573-4.744-8.274-9.494-16.542-14.238-24.815h226.261c34.617 0 47.376 35.64 61.477 60.994h-28.476c28.268-50.565 56.535-101.13 84.808-151.695 9.148-16.36 19.571-45.293 36.635-55.601 26.888-16.239 56.964-5.679 70.136 22.034 48.443 101.971 96.891 203.942 145.334 305.919-10.049 1.308-20.098 2.622-30.142 3.936 18.565-51.225 37.135-102.449 55.705-153.674 7.191-19.835 39.070-11.275 31.808 8.768zM756.072 357.932c21.269 0 21.269 32.984 0 32.984s-21.269-32.984 0-32.984zM49.87 430.818c18.108-28.174 36.211-56.348 54.32-84.522 11.457-17.828 40.021-1.303 28.482 16.646-18.103 28.174-36.211 56.348-54.32 84.522-11.457 17.828-40.021 1.308-28.482-16.646zM1047.769 346.295c18.070 28.454 36.134 56.909 54.204 85.358 11.435 18.015-17.119 34.546-28.482 16.652-18.064-28.454-36.134-56.909-54.204-85.363-11.44-18.015 17.119-34.54 28.482-16.646z" />
<glyph unicode="&#xe908;" glyph-name="air" horiz-adv-x="870" d="M846.67 219.682v20.857c5.788-3.627 11.575-7.281 17.363-10.908-5.788-3.307-11.575-6.641-17.363-9.948zM556.303-1.607c1.894-3.334 3.787-6.641 5.708-9.975-1.894 0.853-3.814 1.68-5.708 2.534v7.441zM556.303-52.362v15.523c4.854-1.464 9.735-2.934 14.589-4.401-4.881-3.707-9.735-7.415-14.589-11.122zM426.709-44.198c3.441 2.958 6.481 6.132 9.175 9.492 2.054-3.654 4.401-6.961 7.148-9.492h-16.323zM310.37-52.362c-4.854 3.707-9.735 7.415-14.589 11.122 4.854 1.627 9.735 3.254 14.589 4.907v-16.029zM310.37-3.447v-6.852c-1.894-1.043-3.814-2.056-5.708-3.096 1.92 3.307 3.814 6.641 5.708 9.948zM23.070 216.615c-5.788 3.334-11.575 6.641-17.363 9.975 5.788 3.947 11.575 7.895 17.363 11.842v-21.817zM23.070 295.748v-4.934c-0.72-0.773-1.174-1.307-1.44-1.654 0.507 0.907 1.44 3.174 1.44 6.588zM850.031 287.933c-1.12 1.013-2.24 2-3.361 3.014v5.147c0 11.068 12.775 13.896 19.31 8.508-84.387 75.345-168.801 150.691-253.214 226.063-21.123 18.856-42.247 37.739-63.397 56.596-6.028 5.388-12.055 10.775-18.083 16.163-1.707 1.52-3.387 3.040-5.094 4.534-3.734 3.334 0.48 0.133 0.16 2.854-11.042 96.362-20.697 196.538-49.128 289.727-6.134 20.083-23.417 74.385-54.942 55.556-25.871-15.442-33.365-62.49-39.766-88.708-20.35-83.72-30.485-170.401-39.233-256.015-0.133-1.334-0.267-2.64-0.373-3.974 6.508 5.814-0.56-5.468-0.48-4.774 0.133 1.6 0.293 3.201 0.453 4.774-12.402-11.095-24.831-22.19-37.259-33.285-50.541-45.101-101.056-90.228-151.571-135.329-44.674-39.9-89.374-79.8-134.048-119.673-6.161-5.521-20.003-13.842-20.003-23.364v-79.133c0-8.268 9.975-14.989 17.363-9.948 107.644 73.399 215.315 146.77 322.959 220.196-0.347 7.014-0.693 14.029-1.040 21.043 5.788-3.307 11.575-6.641 17.336-9.948-5.441-3.707-10.855-7.415-16.296-11.095 6.294-124.18 15.096-250.334 42.567-371.793 2.454 1.334 4.934 2.667 7.388 4.001-1.76-4.347-3.547-8.692-5.308-13.015-0.693 3.014-1.387 6.001-2.080 9.015-29.952-16.189-59.903-32.379-89.855-48.568-3.547-1.894-5.734-6.001-5.734-9.948v-48.915c0-7.172 7.441-13.522 14.616-11.122 35.259 11.845 70.545 23.657 105.804 35.499-1.52 3.894-2.934 7.735-4.347 11.362 4.747-2.694 9.468-5.361 14.189-8.055-3.281-1.094-6.561-2.214-9.842-3.307 4.587-11.842 10.055-24.244 18.99-32.512 4.881-4.534 11.389-4.214 16.323 0 9.121 7.815 15.789 17.043 21.523 27.258-2.934 0.88-5.841 1.76-8.775 2.64 4.347 1.76 8.695 3.547 13.042 5.308-1.36-2.694-2.774-5.361-4.267-7.948 33.392-10.082 66.811-20.163 100.203-30.245 7.201-2.158 14.589 3.761 14.589 11.122v50.755c0 3.707-2.107 8.348-5.708 9.948-27.284 12.109-54.542 24.191-81.827 36.273-0.773-3.227-1.547-6.428-2.32-9.628-1.76 4.321-3.521 8.668-5.308 13.015 2.534-1.12 5.094-2.267 7.628-3.387 28.058 119.966 32.885 247.907 32.619 371.153-5.814 3.654-11.629 7.308-17.443 10.962 5.788 3.334 11.575 6.641 17.363 9.975 0.027-6.961 0.080-13.949 0.080-20.937 109.324-68.678 218.622-137.356 327.946-206.033 7.468-4.721 17.363 1.414 17.363 9.948v74.519c-1.894-7.441-12.055-13.095-19.71-6.268zM21.631 289.161c0.507 0.907 1.44 3.174 1.44 6.588v-4.934c-0.72-0.773-1.174-1.307-1.44-1.654zM5.707 226.59c5.788 3.947 11.575 7.895 17.363 11.842v-21.817c-5.788 3.334-11.575 6.641-17.363 9.975zM304.662-13.394c1.92 3.305 3.814 6.638 5.708 9.946v-6.852c-1.894-1.040-3.814-2.054-5.708-3.094zM295.78-41.24c4.854 1.627 9.735 3.254 14.589 4.907v-16.029c-4.854 3.707-9.735 7.415-14.589 11.122zM339.281 447.907c5.788-3.307 11.575-6.641 17.336-9.948-5.441-3.707-10.855-7.415-16.296-11.095-0.347 7.014-0.693 14.029-1.040 21.043zM382.888 55.070c2.454 1.334 4.934 2.667 7.388 4.001-1.76-4.347-3.547-8.695-5.308-13.015-0.693 3.014-1.387 6.001-2.080 9.015zM403.372-16.622c4.747-2.696 9.468-5.364 14.189-8.055-3.281-1.096-6.561-2.216-9.842-3.31-1.52 3.894-2.934 7.737-4.347 11.365zM435.884-34.705c2.054-3.654 4.401-6.961 7.148-9.492h-16.323c3.441 2.958 6.481 6.132 9.175 9.492zM455.78-30.598c4.347 1.76 8.695 3.547 13.042 5.308-1.36-2.694-2.774-5.361-4.267-7.948-2.934 0.88-5.841 1.76-8.775 2.64zM484.185 48.001c2.534-1.12 5.094-2.267 7.628-3.387-0.773-3.227-1.547-6.428-2.32-9.628-1.76 4.321-3.521 8.668-5.308 13.015zM524.351 436.704c0.027-6.961 0.080-13.949 0.080-20.937-5.814 3.654-11.629 7.308-17.443 10.962 5.788 3.334 11.575 6.641 17.363 9.975zM562.011-11.582c-1.894 0.853-3.814 1.68-5.708 2.534v7.441c1.894-3.334 3.787-6.641 5.708-9.975zM556.303-36.838c4.854-1.467 9.735-2.936 14.589-4.401-4.881-3.707-9.735-7.417-14.589-11.122v15.523zM846.67 240.54c5.788-3.627 11.575-7.281 17.363-10.908-5.788-3.307-11.575-6.641-17.363-9.948v20.857zM869.74 294.201c-1.894-7.441-12.055-13.095-19.71-6.268-1.12 1.013-2.24 2-3.361 3.014v5.147c0 11.068 12.775 13.896 19.31 8.508 0.053-0.053 0.107-0.107 0.16-0.133 0.080-0.080 0.16-0.133 0.213-0.213 0.24-0.213 0.48-0.453 0.693-0.693 2.854-2.907 3.494-6.294 2.694-9.362zM228.41 308.095v-106.201zM220.409 308.095v-106.201c0-10.319 16.003-10.319 16.003 0v106.201c0 10.319-16.003 10.319-16.003 0zM159.065 275.118v-126.567zM151.064 275.118v-126.567c0-10.319 16.003-10.319 16.003 0v126.567c0 10.319-16.003 10.319-16.003 0zM615.139 291.607v-106.201zM607.138 291.607v-106.201c0-10.322 16.003-10.322 16.003 0v106.201c0 10.319-16.003 10.319-16.003 0zM684.484 258.63v-126.567zM676.482 258.63v-126.567c0-10.319 16.003-10.319 16.003 0v126.567c0 10.319-16.003 10.319-16.003 0z" />
<glyph unicode="&#xe909;" horiz-adv-x="2412" d="M968.949 23.527c0-3.745-1.333-6.94-3.999-9.605s-5.86-3.978-9.605-3.978-6.94 1.333-9.605 3.978c-2.645 2.666-3.978 5.86-3.978 9.605v118.289l-79.36 118.776c-1.481 2.243-2.2 4.824-2.2 7.638 0 3.745 1.333 6.94 3.999 9.605 2.645 2.645 5.86 3.978 9.605 3.978 4.655 0 8.336-1.883 11.044-5.628l70.516-105.679 70.516 105.679c2.729 3.745 6.411 5.628 11.044 5.628 3.745 0 6.94-1.333 9.605-3.978 2.666-2.666 3.999-5.86 3.999-9.605 0-2.835-0.74-5.395-2.2-7.638l-79.36-118.776v-118.289z" />
<glyph unicode="&#xe90a;" horiz-adv-x="2412" d="M1208.553 105.108c0-26.277-9.288-48.725-27.864-67.3s-41.002-27.864-67.3-27.864-48.725 9.288-67.3 27.864c-18.576 18.576-27.864 41.002-27.864 67.3s9.288 48.725 27.864 67.3c18.576 18.576 41.002 27.864 67.3 27.864s48.703-9.288 67.3-27.864c18.576-18.576 27.864-41.023 27.864-67.3zM1113.388 173.086c-18.809 0-34.824-6.622-48.090-19.866-13.265-13.265-19.888-29.302-19.888-48.090s6.622-34.824 19.888-48.090c13.244-13.244 29.281-19.866 48.090-19.866s34.824 6.622 48.090 19.866c13.244 13.265 19.888 29.302 19.888 48.090s-6.622 34.824-19.888 48.090c-13.265 13.223-29.281 19.866-48.090 19.866z" />
<glyph unicode="&#xe90b;" horiz-adv-x="2412" d="M1412.485 23.527c0-3.745-1.333-6.94-3.978-9.605-2.666-2.666-5.86-3.978-9.605-3.978s-6.94 1.333-9.605 3.978-3.978 5.86-3.978 9.605v11.065c-17.010-16.439-37.406-24.648-61.186-24.648-24.352 0-45.191 8.632-62.434 25.917-17.285 17.264-25.939 38.104-25.939 62.456v88.373c0 3.745 1.333 6.94 3.999 9.605 2.645 2.645 5.839 3.978 9.584 3.978s6.94-1.333 9.605-3.978c2.645-2.666 3.978-5.86 3.978-9.605v-88.373c0-16.883 5.966-31.291 17.941-43.245 11.933-11.954 26.362-17.941 43.245-17.941s31.291 5.966 43.245 17.941c11.954 11.933 17.941 26.362 17.941 43.245v88.373c0 3.745 1.333 6.94 3.978 9.605 2.666 2.645 5.86 3.978 9.605 3.978s6.94-1.333 9.605-3.978c2.645-2.666 3.978-5.86 3.978-9.605v-163.163z" />
<glyph unicode="&#xe90c;" horiz-adv-x="2412" d="M1563.039 18.259l-96.18 192.381v-187.113c0-3.745-1.333-6.94-3.978-9.605-2.666-2.666-5.86-3.978-9.605-3.978s-6.94 1.333-9.605 3.978-3.978 5.86-3.978 9.605v244.723c0 3.745 1.333 6.94 3.978 9.605 2.666 2.645 5.86 3.978 9.605 3.978 5.437 0 9.457-2.37 12.060-7.151l110.292-220.752 110.292 220.752c2.602 4.781 6.622 7.151 12.060 7.151 3.745 0 6.94-1.333 9.605-3.978 2.645-2.666 3.978-5.86 3.978-9.605v-244.702c0-3.745-1.333-6.94-3.978-9.605-2.666-2.666-5.86-3.978-9.605-3.978s-6.94 1.333-9.605 3.978-3.978 5.86-3.978 9.605v187.113l-97.047-194.073c-2.37-4.422-6.284-6.622-11.721-6.622-5.67-0.021-9.859 2.75-12.588 8.294z" />
<glyph unicode="&#xe90d;" horiz-adv-x="2412" d="M1901.911 38.485c-19.020-19.020-41.7-28.562-67.978-28.562s-48.725 9.288-67.3 27.864-27.864 41.002-27.864 67.3 9.288 48.725 27.864 67.3 41.002 27.864 67.3 27.864 48.725-9.288 67.3-27.864 27.864-41.002 27.864-67.3v-81.56c0-3.745-1.333-6.94-3.978-9.605-2.666-2.666-5.86-3.978-9.605-3.978s-6.94 1.333-9.605 3.978-3.978 5.86-3.978 9.605v14.958zM1833.933 173.086c-18.809 0-34.824-6.622-48.090-19.866-13.244-13.265-19.866-29.302-19.866-48.090s6.622-34.824 19.866-48.090c13.265-13.244 29.302-19.866 48.090-19.866s34.824 6.622 48.090 19.866c13.244 13.265 19.866 29.302 19.866 48.090s-6.622 34.824-19.866 48.090c-13.265 13.223-29.302 19.866-48.090 19.866z" />
<glyph unicode="&#xe90e;" horiz-adv-x="2412" d="M2051.427 37.131c3.745 0 6.94-1.333 9.605-3.978 2.645-2.666 3.978-5.86 3.978-9.605s-1.333-6.94-3.978-9.605c-2.666-2.666-5.86-3.978-9.605-3.978-45.318 0-67.978 22.659-67.978 67.978v95.164h-13.604c-3.745 0-6.94 1.333-9.605 3.978s-3.978 5.86-3.978 9.605 1.333 6.94 3.978 9.605c2.666 2.645 5.86 3.978 9.605 3.978h13.604v67.978c0 3.745 1.333 6.94 3.978 9.605 2.666 2.645 5.86 3.978 9.605 3.978s6.94-1.333 9.605-3.978c2.645-2.666 3.978-5.86 3.978-9.605v-67.978h27.356c3.745 0 6.94-1.333 9.605-3.978 2.666-2.666 3.978-5.86 3.978-9.605s-1.333-6.94-3.978-9.605-5.86-3.978-9.605-3.978h-27.356v-95.164c0.021-27.229 13.625-40.812 40.812-40.812z" />
<glyph unicode="&#xe90f;" horiz-adv-x="2412" d="M2229.696 56.151c3.745 0 6.94-1.333 9.605-3.978s3.978-5.86 3.978-9.605-1.312-6.961-3.914-9.69c-17.56-15.297-38.252-22.934-62.032-22.934-26.277 0-48.725 9.288-67.3 27.864s-27.864 41.002-27.864 67.3 9.288 48.725 27.864 67.3 41.002 27.864 67.3 27.864 48.725-9.288 67.3-27.864 27.864-41.002 27.864-67.3c0-3.745-1.333-6.94-3.978-9.605-2.666-2.666-5.86-3.978-9.605-3.978h-148.353c2.475-13.033 8.717-24.521 18.682-34.507 13.265-13.244 29.302-19.866 48.090-19.866 16.989 0 31.609 5.374 43.837 16.143 2.518 1.904 5.353 2.856 8.526 2.856zM2244.126 118.691c-2.475 13.012-8.717 24.521-18.682 34.507-13.265 13.244-29.302 19.866-48.090 19.866s-34.824-6.622-48.090-19.866c-9.965-9.986-16.206-21.496-18.682-34.507h133.543z" />
<glyph unicode="&#xe910;" horiz-adv-x="2412" d="M539.948 938.187c-225.576 0-405.771-177.952-416.455-400.82-0.381-6.961-1.777-12.737 3.195-17.708 3.343-3.322 15.191-3.322 15.191-3.322h114.861c0 0 14.429-0.973 18.576 3.11 5.48 5.522 4.887 12.377 5.395 19.93 7.045 109.022 64.169 194.602 155.123 231.119-0.169 1.206 7.68 5.12 21.284 8.822-0.487 3.702-0.867 7.49-0.867 11.319 0 45.551 36.94 82.47 82.449 82.47 45.53 0 82.449-36.919 82.449-82.47 0-4.697-0.487-9.33-1.269-13.837 14.789-2.814 24.331-5.353 24.161-6.432 91.652-37.109 147.93-124.721 153.388-236.049 0.317-5.924 2.475-10.494 6.749-14.768 3.724-3.702 14.725-3.216 14.725-3.216h124.044c0 0 9.415-0.889 12.737 2.454 4.020 4.020 6.009 8.992 5.776 14.704-9.034 224.688-194.623 404.692-421.511 404.692z" />
<glyph unicode="&#xe911;" horiz-adv-x="2412" d="M947.771 495.307h-134.262c0 0-14.027 0.36-18.005-1.608-3.047-1.544-8.061-9.267-8.061-9.267l-171.33-226.507-26.7-35.544c19.972-15.043 32.984-38.887 32.984-65.82 0-45.509-36.919-82.428-82.449-82.428s-82.449 36.919-82.449 82.428c0 26.869 12.927 50.65 32.815 65.671l-26.742 35.417-177.782 232.6c0 0-2.539 2.814-3.935 3.491-1.968 0.994-8.738 1.544-8.738 1.544h-144.058c0 0-4.951 0.36-6.157-2.116-0.973-2.052 0.889-4.908 0.889-4.908l406.405-503.516c0 0 7.955-7.638 13.223-7.638 4.845 0 12.060 6.474 12.060 6.474l396.631 499.496c0 0 4.908 6.114 3.237 9.669-1.566 3.131-7.574 2.56-7.574 2.56z" />
<glyph unicode="&#xe912;" horiz-adv-x="2412" d="M457.119 779.319c5.543-40.177 39.902-71.109 81.581-71.109 40.791 0 74.6 29.683 81.18 68.591-25.452 4.845-66.645 10.409-101.469 10.346-25.452-0.042-46.694-3.829-61.292-7.828z" />
<glyph unicode="&#xe913;" horiz-adv-x="2412" d="M589.435 222.403c-13.794 10.367-30.889 16.608-49.465 16.608-18.66 0-35.819-6.262-49.656-16.756l49.656-65.671 49.465 65.82z" />
<glyph unicode="&#xe914;" glyph-name="nature" horiz-adv-x="729" d="M275.116-52.077v297.477c0 86.088-0.783 174.353-69.399 238.419-15.325 14.312-33.519 25.209-52.731 33.4 0.807-6.244 1.61-12.487 2.412-18.727 15.5 19.184 31.004 38.368 46.503 57.552-3.867-1.021-7.73-2.047-11.601-3.068 53.319-18.6 104.254-61.395 122.278-115.637 4.169-12.547 23.417-10.679 23.417 3.172v138.366l-11.923-11.923h88.556l-11.923 11.923c0.183-46.229 0.37-92.458 0.556-138.688 0.060-14.24 18.735-15.198 23.421-3.168 20.317 52.167 62.655 120.656 123.943 130.358-4.491 1.828-8.974 3.652-13.461 5.481 11.068-18.453 22.141-36.902 33.213-55.35 1.423 5.441 2.85 10.878 4.276 16.315-37.828-20.042-68.776-56.598-88.742-93.655-26.481-49.146-27.864-102.096-27.864-156.262v-335.985l11.923 11.923h-204.777c-15.377 0-15.377-23.846 0-23.846h204.777c6.498 0 11.923 5.421 11.923 11.923v297.45c0 45.12-3.791 93.162 7.082 137.118 12.98 52.473 48.598 101.87 95.427 129.459 0.755 0.441 1.514 0.874 2.285 1.284 5.691 3.017 7.515 10.917 4.276 16.315-11.068 18.449-22.145 36.898-33.217 55.346-2.985 4.976-8.044 6.335-13.461 5.477-69.713-11.033-116.9-86.163-140.595-147.010 7.806-1.057 15.607-2.114 23.417-3.172-0.187 46.229-0.374 92.458-0.556 138.688-0.028 6.498-5.405 11.923-11.923 11.923h-88.556c-6.494 0-11.923-5.425-11.923-11.923v-138.366c7.81 1.057 15.615 2.114 23.421 3.168-20.813 62.643-77.388 110.82-138.926 132.293-3.629 1.268-9.137-0.016-11.601-3.064-15.5-19.184-31.004-38.372-46.503-57.556-4.264-5.27-5.314-15.428 2.412-18.723 67.015-28.567 101.734-92.84 109.103-162.975 2.552-24.259 1.216-49.206 1.216-73.529v-312.202c0-15.377 23.846-15.377 23.846 0zM239.366 278.319c-89.072 35.701-159.72 107.7-193.887 197.341-33.75 88.548-27.244 189.289 14.947 273.715 84.22 168.543 296.75 234.246 462.845 148.154 112.020-58.073 181.523-176.662 182.493-301.984 1.053-137.11-85.742-263.493-211.7-315.684-13.994-5.799-7.869-28.881 6.343-22.995 173.034 71.701 266.601 262.734 213.973 443.299-49.794 170.856-223.821 279.82-398.791 256.769-157.78-20.786-285.443-147.205-310.958-303.646-27.606-169.246 70.687-334.749 228.392-397.96 14.288-5.727 20.432 17.344 6.343 22.991z" />
<glyph unicode="&#xe915;" glyph-name="party" horiz-adv-x="672" d="M404.309 592.328c-0.588-35.745-29.011-64.165-64.759-64.759-35.749-0.588-64.182 29.902-64.759 64.759-0.591 35.747 29.9 64.182 64.759 64.759 35.747 0.591 64.182-29.902 64.759-64.759 0.106-6.473 10.157-6.485 10.049 0-0.611 36.981-27.396 68.512-64.194 74.016-36.534 5.468-71.075-17.692-82.222-52.329-11.382-35.346 7.451-74.148 40.394-89.659 33.597-15.818 73.388-2.976 93.884 27.106 8.156 11.96 11.914 26.525 12.148 40.867 0.108 6.483-9.943 6.473-10.049 0zM517.038 565.57v187.667c0 11.847 2.491 27.604-1.967 38.97-5.553 14.157-19.276 15.484-32.345 15.484-13.525 0-25.772 0.253-34.111-12.445-6.473-9.855-3.43-28.673-3.43-39.683v-189.845c0 1.315 0.882 2.551-0.264 0.33-1.155-2.251-2.391-4.452-3.622-6.67-13.453-24.261-27.497-48.207-41.449-72.182 1.448 0.828 2.894 1.661 4.339 2.489-20.192-0.129-40.38-0.309-60.569-0.542-14.069-0.159-28.138-0.343-42.205-0.645-6.478-0.14-15.43 1.118-21.701-1.054 1.631-0.431 3.259-0.86 4.888-1.292-18.894 20.142-37.789 40.276-56.682 60.417 0.433-1.629 0.865-3.257 1.292-4.888 5.387 18.856 10.773 37.711 16.151 56.57 3.779 13.228 0.553 27.293-13.3 33.148-10.128 4.277-21.714 11.439-33.023 10.173-11.308-1.268-18.377-9.871-21.303-20.103-3.048-10.667-6.095-21.337-9.14-32.004-3.525-12.339-7.050-24.682-10.574-37.021-2.208-7.722-5.825-16.351-5.017-24.401 1.132-11.281 9.372-14.969 15.362-21.682 5.691-6.388 11.52-12.657 17.317-18.946 18.053-19.587 36.2-39.088 54.347-58.582 6.828-7.338 13.664-14.674 20.501-22.005 1.615-1.734 3.237-3.472 4.854-5.206 2.422-2.598-0.65 5.274-0.65 1.118v-109.627c0-4.168 2.914 3.731 0.799 1.197-11.269-13.437-22.537-26.88-33.807-40.315-17.060-20.347-34.121-40.694-51.183-61.038-5.811-6.93-11.622-13.859-17.432-20.787-4.613-5.506-8.845-10.311-10.067-17.82-3.23-19.859 18.474-33.224 31.116-44.889 18.964-17.48 37.925-34.966 56.891-52.451 4.119-3.794 8.233-7.593 12.353-11.384 11.823-10.9 28.732-6.408 38.846 4.318 9.126 9.664 20.386 19.717 17.929 34.524-1.577 9.511-7.893 14.59-14.482 20.669-18.856 17.38-37.704 34.76-56.554 52.142v-7.106c13.345 15.756 26.698 31.505 40.087 47.231 3.25 3.821 6.506 7.638 9.77 11.446 1.006 1.177 2.017 2.353 3.029 3.521 2.439 2.822 0.738-0.208-2.113 0.094 8.21-0.846 16.408-1.795 24.601-2.795 12.769-1.554 25.598-3.156 38.206-5.748 1.949-0.401 3.878-0.868 5.792-1.421 3.248-0.943-0.061-0.916-0.061 2.804v-215.052c0-15.461 14.194-24.66 28.298-25.278 11.329-0.492 24.797-1.3 34.188 6.061 7.133 5.601 9.941 13.092 9.941 21.862v407.469c0 3.684-0.961-1.23-0.383-0.295 9.17 14.849 18.333 29.697 27.504 44.544 14.484 23.455 28.97 46.91 43.455 70.365 3.816 6.18 7.633 12.363 11.452 18.545 5.637 9.131 4.252 21.777 4.13 32.045-0.077 6.476-10.126 6.485-10.049 0 0.104-8.784 1.674-19.788-3.133-27.579-3.693-5.977-7.385-11.96-11.078-17.94-13.641-22.091-27.281-44.179-40.922-66.267-9.86-15.966-19.72-31.93-29.579-47.896-1.691-2.745-1.448-5.373-1.448-8.502v-401.439c0-7.469-0.499-13.484-7.772-18.176-5.56-3.594-12.873-2.748-19.188-2.748-7.974 0-15.265-0.11-21.529 5.841-4.573 4.349-3.844 10.66-3.844 16.325v200.43c0 2.676 0.943 8.055-0.736 10.496-4.194 6.104-16.552 6.372-23.022 7.432-12.977 2.129-26.054 3.714-39.115 5.234-4.755 0.553-15.172 3.862-19.355 0.235-5.664-4.906-10.284-11.957-15.127-17.643-13.059-15.343-26.091-30.712-39.113-46.087-1.712-2.021-2.136-5.137 0-7.106 14.866-13.706 29.729-27.41 44.592-41.118 6.374-5.874 12.748-11.752 19.121-17.626 12.826-11.832-2.378-25.653-10.604-34.373-8.877-9.418-19.121-9.395-27.982-1.232-6.959 6.413-13.908 12.831-20.873 19.249-18.962 17.484-37.923 34.966-56.891 52.449-4.117 3.796-8.233 7.595-12.35 11.387-8.762 8.081-3.289 18.461 2.711 25.607 13.887 16.559 27.773 33.123 41.66 49.68 16.232 19.362 32.467 38.719 48.701 58.081 4.108 4.895 8.21 9.786 12.321 14.69 2.755 3.285 2.346 6.408 2.346 10.496v102.426c0 4.088-0.253 6.634-3.125 9.72-30.61 32.819-61.319 65.559-91.554 98.718-1.906 2.097-3.821 4.201-5.698 6.328-0.443 0.501-0.882 0.997-1.3 1.525 1.967-2.432-0.633 0.72-0.209 0.295-2.362 2.36-5.333 3.246-7.455 6.129-5.482 7.439-0.027 19.115 2.27 27.166 6.573 23.007 13.144 46.018 19.717 69.024 0.918 3.209 1.441 5.248 3.684 7.983 6.115 7.451 14.796 4.85 22.142 1.746 12.969-5.489 27.565-9.583 22.526-27.22-5.417-18.964-10.832-37.928-16.25-56.894-1.204-4.216 4.688-8.581 7.174-11.232 6.537-6.97 13.075-13.938 19.613-20.909 10.399-11.073 20.78-22.151 31.17-33.224 1.155-1.234 3.264-1.854 4.888-1.292 0.155 0.050-1.049-0.061 0.604 0.065 1.246 0.097 2.484 0.147 3.731 0.201 4.468 0.199 8.944 0.293 13.417 0.391 12.801 0.295 25.607 0.458 38.411 0.616 21.396 0.264 42.791 0.45 64.187 0.588 5.459 0.036 6.944 4.478 9.362 8.641 5.937 10.226 11.858 20.464 17.761 30.712 6.386 11.087 12.763 22.181 19.013 33.346 2.113 3.779 6.363 9.091 6.363 13.672v192.934c0 12.709-4.313 38.719 15.233 38.719 11.119 0 27.419 3.266 34.465-7.465 2.791-4.243 2.060-10.399 2.060-15.274v-209.34c0-6.478 10.049-6.478 10.049 0zM24.876 770.306c10.805-0.546 24.568 1.175 34.698-3.451 11.551-5.278 16.113-22.393 20.545-32.936 4.62-11.005 9.422-22.174 17.922-30.79 9.352-9.483 22.817-14.547 34.76-19.767 7.347-3.212 13.746 7.604 6.339 10.847-11.841 5.175-25.075 10.023-34.045 19.717-9.948 10.748-14.036 26.972-19.938 40.001-4.634 10.245-10.916 20.522-21.788 24.886-11.8 4.731-26.045 3.428-38.49 4.058-8.097 0.408-8.060-12.15 0-12.563zM177.417 889.319c14.288-7.924 29.85-13.744 43.394-22.965 14.605-9.945 19.118-25.923 20.917-42.67 1.453-13.505 1.101-27.378 6.871-39.965 6.341-13.828 21.777-17.98 35.666-18.872 8.089-0.519 8.042 12.046 0 12.563-14.971 0.959-24.324 6.492-27.454 21.463-2.933 13.988-2.369 28.515-5.297 42.586-7.126 34.262-40.865 43.798-67.753 58.712-7.089 3.931-13.423-6.918-6.341-10.847zM643.423 909.574c-14.946-6.893-29.645-15.17-39.185-28.986-8.156-11.802-9.23-27.013-8.914-40.889 0.372-16.321 4.83-33.475 0.157-49.515-4.573-15.689-22.605-18.515-36.613-19.313-8.051-0.458-8.089-13.025 0-12.563 15.551 0.886 32.968 3.799 42.943 17.060 9.107 12.097 8.856 28.441 7.629 42.812-1.401 16.42-3.862 33.87 2.143 49.687 5.975 15.733 23.999 24.322 38.183 30.864 7.35 3.391 0.961 14.211-6.339 10.847zM534.604 820.374c16.203 0 16.203 25.122 0 25.122-16.201 0-16.201-25.122 0-25.122zM283.713 875.405c16.201 0 16.201 25.122 0 25.122-16.203 0-16.203-25.122 0-25.122zM339.55 752.023c16.203 0 16.203 25.122 0 25.122s-16.203-25.122 0-25.122zM180.589 720.124c16.203 0 16.203 25.122 0 25.122-16.201 0-16.201-25.122 0-25.122zM455.204 930.806c-15.752-7.357-26.347-17.006-27.304-35.059-0.485-9.221 1.674-18.344 1.010-27.563-0.771-10.751-10.399-13.097-19.571-13.69-6.434-0.417-6.471-10.471 0-10.049 18.504 1.197 29.859 9.702 29.789 28.979-0.027 9.77-2.458 19.458-0.295 29.176 2.291 10.338 12.702 15.447 21.443 19.528 5.867 2.741 0.761 11.405-5.073 8.681z" />
<glyph unicode="&#xe916;" glyph-name="physical-activity" horiz-adv-x="1712" d="M302.068 914.117c-45.827 0-83.114-37.288-83.114-83.122v-765.997c0-45.827 37.288-83.114 83.114-83.114h5.892c45.835 0 83.13 37.288 83.13 83.114v765.997c0 45.835-37.296 83.122-83.13 83.122h-5.892zM307.96-64h-5.892c-71.128 0-128.998 57.87-128.998 128.998v765.997c0 71.136 57.87 129.006 128.998 129.006h5.892c71.136 0 129.006-57.87 129.006-129.006v-765.997c0-71.128-57.87-128.998-129.006-128.998zM106.068 808.361c-33.184 0-60.185-26.993-60.185-60.185v-600.351c0-33.184 27.001-60.185 60.185-60.185h4.622c33.184 0 60.185 27.001 60.185 60.185v600.351c0 33.192-27.001 60.185-60.185 60.185h-4.622zM110.69 41.757h-4.622c-58.485 0-106.068 47.583-106.068 106.068v600.351c0 58.493 47.583 106.068 106.068 106.068h4.622c58.485 0 106.068-47.575 106.068-106.068v-600.351c0-58.485-47.583-106.068-106.068-106.068zM1403.926 914.117c-45.827 0-83.114-37.288-83.114-83.122v-765.997c0-45.827 37.288-83.114 83.114-83.114h5.892c45.835 0 83.13 37.288 83.13 83.114v765.997c0 45.835-37.296 83.122-83.13 83.122h-5.892zM1409.818-64h-5.892c-71.128 0-128.998 57.87-128.998 128.998v765.997c0 71.136 57.87 129.006 128.998 129.006h5.892c71.136 0 129.006-57.87 129.006-129.006v-765.997c0-71.128-57.87-128.998-129.006-128.998zM1601.206 808.369c-33.184 0-60.185-27.001-60.185-60.193v-600.351c0-33.192 27.001-60.193 60.185-60.193h4.622c33.184 0 60.185 27.001 60.185 60.193v600.351c0 33.192-27.001 60.193-60.185 60.193h-4.622zM1605.828 41.749h-4.622c-58.485 0-106.060 47.583-106.060 106.076v600.351c0 58.493 47.575 106.076 106.060 106.076h4.622c58.485 0 106.068-47.583 106.068-106.076v-600.351c0-58.493-47.583-106.076-106.068-106.076zM1297.868 527.885h-883.841v45.883h883.841v-45.883zM1297.868 327.25h-883.841v45.883h883.841v-45.883z" />
<glyph unicode="&#xe917;" glyph-name="pub" horiz-adv-x="270" d="M25.407-63.943l0.663 0.031c-10.387-0.935-17.952 5.93-21.32 11.865-1.684 2.967-2.686 5.816-3.328 8.038s-1.047 4.525-0.955 4.047c-0.085 0.422-0.134 0.908-0.134 1.405 0 0.001 0 0.002 0 0.003l-0.175 588.698 0.128-1.366c-1.924 10.298 6.481 16.94 6.811 17.273l-0.36-0.39 67.721 78.959 0.067 307.927c0.001 4.116 3.337 7.451 7.453 7.453h102.658c4.103-0.001 7.431-3.317 7.453-7.415l1.392-305.89c1.638-1.935 18.28-21.584 36.534-43.627 9.566-11.551 19.12-23.218 26.313-32.291 3.596-4.537 6.595-8.415 8.768-11.392 1.086-1.489 1.959-2.731 2.671-3.868 0.356-0.568 0.67-1.090 1.007-1.787s1.246-0.877 0.894-4.546l0.031 0.683c0 0-0.574-141.153-0.96-285.63-0.193-72.239-0.34-145.306-0.344-201.972-0.002-28.333 0.032-52.57 0.113-70.536s0.242-30.128 0.385-32.661c-0.497 1.21-0.216 0.641-0.010 0.037 0.27-4.743 0.722-11.819-4.972-17.788-2.781-2.912-5.995-4.118-8.444-4.71-1.224-0.296-2.292-0.438-3.184-0.503-0.446-0.033-0.844-0.044-1.248-0.041s-0.104-0.241-2.049 0.241l1.798-0.221-225.372-0.026zM24.734-49.063c0.188 0.017 0.406 0.026 0.627 0.026 0.014 0 0.029 0 0.043 0l225.375 0.026c-0.009 0.003 0.198-0.006 0.402-0.023-0.027 0.002-0.018 0.002-0.017 0.002-0.014 0-0.027 0.001 0.026 0.005 0.147 0.011 0.459 0.053 0.77 0.128 0.623 0.151 1.104 0.449 1.161 0.508-0.040-0.042 1.055 3.474 0.883 6.631l0.005-0.016c-0.233 4.124-0.33 15.429-0.411 33.437s-0.115 42.257-0.113 70.602c0.004 56.69 0.151 129.767 0.344 202.013 0.384 143.566 0.948 282.032 0.955 283.822-0.408 0.622-0.924 1.388-1.736 2.501-1.948 2.67-4.876 6.459-8.408 10.914-7.064 8.911-16.582 20.535-26.113 32.045-19.062 23.019-38.183 45.599-38.183 45.599-1.086 1.268-1.757 2.946-1.767 4.78l-1.366 301.154h-87.783l-0.067-303.238c0-1.858-0.681-3.558-1.806-4.863l-69.505-81.035c0.949 1.239 0.371 0.348-0.36-0.391-1.615-1.633-2.774-3.936-2.752-4.052 0.080-0.403 0.128-0.879 0.128-1.366l0.175-587.882c0.113-0.603 0.173-1.013 0.498-2.137 0.415-1.434 1.086-3.257 1.972-4.818 1.772-3.122 2.921-4.745 7.021-4.376zM48.87 122.762c-5.089 1.028-2.711 11.697-2.711 15.889v337.194c0 1.278 162.334 0.639 179.428 0.639 10.174 0 10.174 15.778 0 15.778h-178.61c-22.679 0-16.596-35.202-16.596-49.397v-307.47c0-11.839-0.739-24.812 14.295-27.846 9.935-2.006 14.166 13.201 4.194 15.213z" />
<glyph unicode="&#xe918;" glyph-name="trip" horiz-adv-x="1269" d="M1043.675 8.653h-868.946c-31.226 0-56.637 25.407-56.637 56.637v548.274c0 31.226 25.407 56.633 56.637 56.633h199.409v35.829c0 69.607 56.629 126.236 126.236 126.236h217.678c69.611 0 126.24-56.629 126.24-126.236v-35.829h232.968v-35.682h-268.651v71.512c0 49.932-40.625 90.553-90.557 90.553h-217.678c-49.932 0-90.553-40.621-90.553-90.553v-71.512h-235.091c-11.551 0-20.955-9.399-20.955-20.95v-548.278c0-11.551 9.399-20.955 20.955-20.955h868.946c11.551 0 20.95 9.399 20.95 20.955v131.342h35.682v-131.342c0-31.226-25.402-56.633-56.633-56.633zM766.708 634.515h-315.012v89.353h3.416c7.129 18.026 24.731 30.807 45.262 30.807h217.657c26.842 0 48.682-21.823 48.682-48.648v-71.512zM487.382 670.197h243.647v35.829c0 7.15-5.832 12.966-12.999 12.966h-217.657c-7.15 0-12.966-5.816-12.966-12.966l-0.025-35.829zM841.476-4.048c-7.956 0-15.382 3.47-20.376 9.512l-43.365 52.638c-7.477-2.664-13.272-4.2-17.833-4.75-1.213-0.147-2.375-0.214-3.525-0.214-12.877 0-23.518 8.367-26.481 20.812-1.615 6.73-1.767 13.528-1.145 20.225-1.406 0.382-2.883 0.785-4.418 1.2l-63.367 17.187c-8.111 2.203-14.48 8.073-17.489 16.108-3.071 8.195-2.069 17.338 2.681 24.454l21.022 31.495c5.367 8.039 15.030 12.722 24.546 11.795l66.321-6.189c54.799 113.652 89.953 180.955 112.032 220.59-28.818-0.285-74.65-0.734-124.633-1.225l-146.745-1.439c-9.747 0-18.475 5.304-23.044 13.847-4.775 8.929-4.347 19.57 1.125 27.765l34.004 50.947c8.044 12.051 22.839 13.192 31.675 13.876 1.322 0.101 2.539 0.18 3.554 0.327 45.933 6.479 91.854 12.953 137.766 19.444l187.165 26.439c40.655 49.164 84.503 100.766 134.518 146.783 1.867 1.716 3.864 3.609 5.988 5.623 17.413 16.524 41.267 39.153 68.34 39.153 0.793 0 1.59-0.021 2.375-0.059 14.912-0.751 23.241-8.274 27.601-14.459 12.735-18.055 6.73-45.757 0.088-67.874-20.367-67.656-53.389-131.686-85.317-193.61l-6.856-13.314 4.179-16.171c3.646-14.040 7.28-28.1 10.922-42.157l14.015-54.107c58.924-227.241 58.723-228.076 57.178-234.588-0.848-3.596-1.519-6.462-36.308-57.934-4.884-7.322-13.242-11.74-22.306-11.74v0c-10.519 0-20.023 6.097-24.227 15.533-20.46 45.656-40.487 93.159-59.855 139.092l-2.618 6.206c-16.167 38.334-30.291 71.696-44.494 104.119-39.249-54.736-106.552-145.331-157-196.195l29.342-46.294c5.253-8.304 4.922-19.671-0.818-28.293l-21.823-32.691c-4.972-7.431-13.339-11.866-22.394-11.866zM798.74 88.721l42.107-51.111 11.891 17.816-27.861 43.953c-1.825 2.874-3.361 5.3-4.611 7.423-0.348 0.449-0.676 0.915-0.982 1.397l0.134 0.088c-3.55 6.374-4.129 10.083-1.67 16.196 1.175 2.933 3.092 5.455 5.509 7.36 58.236 55.064 151.181 184.815 178.421 223.473 0.361 0.512 0.755 1.070 1.192 1.657 0.025 0.034 0.046 0.071 0.071 0.105l0.004-0.004c2.698 3.579 6.999 8.027 14.891 8.027 6.579 0 12.63-3.625 15.731-9.428 0.47-0.881 0.864-1.796 1.175-2.727 18.605-41.561 36.018-82.648 56.792-131.909l2.618-6.206c17.178-40.747 34.881-82.728 52.894-123.449 8.69 13.007 16.817 25.381 20.862 31.877-6.189 27.622-37.957 150.132-55.655 218.387l-14.023 54.124c-3.63 14.044-7.263 28.096-10.918 42.14l-4.704 18.198c-1.070 4.104-2.333 12.152 1.376 19.436l8.833 17.153c31.189 60.489 63.435 123.034 82.858 187.534 7.624 25.365 6.063 34.029 5.216 36.375-0.147 0.017-0.323 0.029-0.524 0.042l-0.587 0.013c-12.844 0-32.212-18.374-43.785-29.355-2.274-2.157-4.414-4.188-6.399-6.009-49.357-45.413-93.054-97.12-133.583-146.183l-1.943-2.358c-0.013-0.013-0.025-0.029-0.038-0.046-3.395-4.095-8.602-6.672-13.914-6.672-0.013 0-0.025 0-0.038 0l-191.323-27.026c-45.908-6.487-91.841-12.97-137.737-19.44-1.632-0.235-3.638-0.403-5.82-0.575-1.729-0.134-4.574-0.352-6.474-0.692l-22.902-34.315 129.257 1.271c78.586 0.768 152.809 1.494 155.737 1.536 0.004 0 0.008 0 0.008 0 0.013 0 0.013 0 0.038 0 0.008 0 0.029 0 0.046 0 0.021 0 0.021 0 0.038 0 0.008 0 0.025 0 0.034 0 0.021 0 0.034 0 0.042 0h0.004c0.029 0.004 0.059 0 0.084 0v0c6.361-0.017 12.328-3.416 15.504-8.933 3.185-5.53 3.176-12.336-0.025-17.854-0.311-0.541-0.65-1.062-1.020-1.561-19.524-32.892-57.25-102.264-126.836-246.714-1.2-2.492-2.283-4.741-3.353-6.739-0.004-0.004-0.004-0.008-0.008-0.017v0c-3.873-7.23-7.574-11.191-15.982-11.522-1.108-0.046-2.178 0.013-3.235 0.168l-72.275 6.743-11.174-16.742 50.96-13.822c11.035-2.992 19.020-5.161 19.952-5.413 0.034-0.008 0.067-0.017 0.097-0.025 0.013-0.013 0.025-0.008 0.029-0.008 8.589-2.375 14.199-10.754 13.007-19.595-0.143-1.087-0.386-2.14-0.713-3.147-0.768-3.562-1.431-7.121-1.75-10.423 2.841 0.982 6.512 2.358 11.224 4.284 2.077 0.848 4.435 1.813 7.968 1.813 6.369 0.004 12.089-3.357 15.257-8.568z" />
<glyph unicode="&#xe919;" glyph-name="people" horiz-adv-x="1654" d="M1524.373 65.371h-271.269c-10.615 0-19.214 8.604-19.214 19.214v48.54l-5.938 6.123c-10.908 11.084-23.85 20.529-38.378 27.971-31.636 16.249-64.862 31.726-101.59 47.329-5.987 2.544-10.28 7.944-11.41 14.352s1.062 12.951 5.82 17.388l2.079 1.961c2.332 2.21 4.745 4.501 7.479 6.719 0.289 0.235 0.592 0.465 0.895 0.682 6.765 4.862 13.154 7.79 19.521 8.956 0.172 0.032 0.339 0.059 0.511 0.086 4.284 0.664 5.639 1.396 5.856 1.523-0.032 0.041 0.673 1.188 1.441 4.532 3.755 15.020 6.719 30.773 3.588 46.502-0.203 1.062-0.38 1.771-0.511 2.223-0.036 0.014-0.072 0.027-0.108 0.041-11.084 4.361-22.038 9.051-32.63 13.592-5.585 2.395-11.17 4.785-16.755 7.126-27.582 11.627-24.126 31.934-19.128 46.204 15.391 43.29 23.886 80.614 26.764 117.559 0.714 8.251 1.080 16.362 1.469 24.948 1.112 24.564 2.255 49.959 11.577 75.278 12.377 32.377 31.211 52.39 56.059 59.706 5.481 1.6 11.17 4.306 17.189 7.171 9.892 4.709 21.112 10.045 34.356 11.816 0.447 0.059 0.895 0.104 1.342 0.131 0.804 0.050 1.582 0.136 2.354 0.217 2.395 0.249 5.603 0.565 9.137 0.398v0c0.84-0.045 1.713-0.149 2.571-0.298 47.808-3.38 105.169-32.341 119.426-88.513 0.176-0.741 0.334-1.469 0.479-2.174 0.967-1.64 1.699-3.443 2.155-5.368 4.821-20.542 5.874-41.048 6.882-60.876 0.402-7.813 0.777-15.187 1.374-22.585 2.865-36.566 11.591-74.925 26.688-117.306 5.282-15.594 7.79-34.654-19.060-46.222-5.142-2.151-10.068-4.266-14.993-6.38-11.166-4.79-22.702-9.738-34.55-14.207-0.172-0.456-0.429-1.27-0.728-2.625-2.756-14.013-0.664-28.039 3.629-46.005 0.926-3.787 1.753-4.799 1.762-4.808 0 0 0 0 0 0 0.023 0 1.229-0.809 5.811-1.604 6.634-0.981 13.258-4.044 20.235-9.358 3.683-2.838 6.9-5.888 9.742-8.581 3.303-3.131 6.724-6.371 9.336-7.718 26.001-11.758 56.909-25.355 89.308-37.28 57.189-21.125 90.302-59.593 98.441-114.342 0.822-5.526-0.809-11.139-4.455-15.373s-8.97-6.665-14.559-6.665zM1272.318 103.799h227.6c-10.398 28.762-32.548 48.703-68.269 61.898-33.66 12.386-65.486 26.398-92.178 38.468-0.172 0.077-0.343 0.158-0.515 0.244-7.93 3.873-13.859 9.494-19.092 14.451-2.377 2.255-4.627 4.383-6.679 5.96-1.649 1.256-2.612 1.762-2.982 1.93-0.027 0.005-0.054 0.009-0.081 0.014-21.699 3.683-33.637 14.568-38.726 35.291-4.333 18.134-8.54 39.331-3.895 62.869 2.192 10.054 7.004 23.696 24.27 30.56 11.432 4.311 22.639 9.114 33.475 13.764 4.216 1.807 8.423 3.615 12.648 5.395-15.992 45.061-25.328 86.421-28.441 126.159-0.637 7.917-1.044 15.92-1.437 23.665-0.859 16.819-1.676 32.806-4.663 48.188-1.319 2.088-2.255 4.46-2.693 7.022l-0.163 0.962c-0.285 1.695-0.574 3.461-0.962 5.133-9.11 35.874-49.914 57.067-85.549 59.308-0.664 0.032-1.292 0.095-1.866 0.176-0.913-0.041-1.672-0.14-2.436-0.217-1.017-0.104-2.033-0.208-3.068-0.285-7.117-1.075-14.559-4.614-22.422-8.355-7.122-3.389-14.487-6.891-22.878-9.345-12.707-3.742-23.113-15.969-30.899-36.335-7.176-19.503-8.143-40.876-9.164-63.511-0.389-8.604-0.791-17.497-1.559-26.371-3.109-39.968-12.173-80.162-28.495-126.249 4.803-2.024 9.625-4.089 14.451-6.159 10.33-4.424 21.008-9.001 31.473-13.118 20.018-7.763 23.29-25.052 24.365-30.732 4.596-23.050 0.587-44.699-3.945-62.81-2.969-12.896-8.739-21.997-17.976-27.853 23.61-10.655 45.933-21.401 67.546-32.503 18.17-9.313 34.437-21.193 48.323-35.309l11.455-11.812c3.479-3.583 5.422-8.382 5.422-13.375v-37.117zM374.102 60.848h-271.273c-5.585 0-10.899 2.436-14.55 6.665s-5.278 9.846-4.455 15.373c8.138 54.749 41.252 93.217 98.414 114.333 32.472 11.948 63.357 25.54 89.34 37.284 2.607 1.347 6.028 4.587 9.331 7.718 2.838 2.693 6.060 5.743 9.67 8.522 7.054 5.373 13.678 8.436 20.312 9.413 4.596 0.8 5.793 1.609 5.883 1.676v0c-0.018 0 0.786 1.066 1.713 4.849 4.266 17.854 6.358 31.88 3.516 46.276-0.244 1.103-0.474 1.817-0.637 2.232-0.041 0.018-0.086 0.036-0.127 0.054-11.586 4.361-23.19 9.336-34.415 14.153-4.934 2.115-9.864 4.234-14.821 6.308-27.031 11.649-24.528 30.705-19.34 46.019 15.192 42.67 23.922 81.030 26.783 117.555 0.601 7.438 0.976 14.812 1.378 22.625 1.012 19.828 2.061 40.334 6.882 60.876 0.456 1.92 1.184 3.719 2.146 5.355 0.127 0.61 0.262 1.216 0.398 1.812 14.347 56.557 71.721 85.522 119.534 88.893 0.854 0.149 1.722 0.253 2.553 0.294v0.005c3.529 0.167 6.737-0.154 9.137-0.398 0.773-0.081 1.55-0.167 2.354-0.217 0.447-0.027 0.895-0.072 1.342-0.131 13.244-1.776 24.455-7.108 34.351-11.816 6.019-2.865 11.708-5.572 17.149-7.158 24.898-7.334 43.732-27.347 56.019-59.498 9.403-25.54 10.547-50.94 11.658-75.499 0.389-8.586 0.755-16.697 1.455-24.776 2.887-37.112 11.387-74.442 26.746-117.641 5.025-14.356 8.482-34.663-19.056-46.272-5.63-2.359-11.211-4.749-16.801-7.144-10.592-4.537-21.545-9.232-32.548-13.556-0.068-0.027-0.131-0.054-0.19-0.077-0.127-0.429-0.294-1.084-0.474-2.038-3.168-15.915-0.203-31.663 3.47-46.335 0.859-3.732 1.586-4.885 1.69-5.038 0 0.059 1.274-0.687 5.698-1.369 0.167-0.027 0.339-0.054 0.506-0.086 6.38-1.166 12.765-4.098 19.525-8.961 0.298-0.212 0.592-0.438 0.877-0.664 2.734-2.219 5.147-4.505 7.474-6.71l2.092-1.97c4.763-4.437 6.954-10.981 5.825-17.388-1.125-6.408-5.422-11.812-11.41-14.356-36.742-15.603-69.964-31.080-101.572-47.32-14.55-7.451-27.492-16.896-38.495-28.075l-5.847-6.028v-48.54c0.005-10.624-8.599-19.227-19.209-19.227zM127.288 99.276h227.6v37.112c0 4.993 1.948 9.792 5.422 13.375l11.365 11.717c13.985 14.216 30.248 26.096 48.441 35.413 21.6 11.098 43.922 21.844 67.542 32.503-9.263 5.888-15.047 15.070-18.075 28.192-4.446 17.763-8.455 39.412-3.827 62.643 1.035 5.495 4.311 22.783 24.406 30.583 10.384 4.080 21.062 8.658 31.392 13.086 4.817 2.065 9.634 4.13 14.451 6.159-16.308 46.037-25.377 86.258-28.509 126.421-0.755 8.703-1.157 17.596-1.545 26.2-1.026 22.63-1.988 44.008-9.25 63.732-7.7 20.14-18.111 32.368-30.854 36.123-8.36 2.44-15.721 5.942-22.847 9.331-7.863 3.742-15.305 7.28-22.417 8.355-1.035 0.081-2.052 0.181-3.068 0.285-0.786 0.081-1.573 0.181-2.386 0.221-0.587-0.086-1.225-0.149-1.916-0.181-35.635-2.241-76.439-23.439-85.639-59.683-0.294-1.297-0.583-3.064-0.868-4.758l-0.163-0.958c-0.438-2.562-1.374-4.934-2.693-7.022-2.987-15.382-3.805-31.369-4.663-48.188-0.393-7.741-0.804-15.748-1.441-23.705-3.104-39.616-12.404-80.894-28.436-126.122 4.157-1.749 8.409-3.574 12.662-5.4 10.831-4.645 22.033-9.449 33.131-13.633 17.587-6.986 22.399-20.624 24.519-30.289 4.727-23.936 0.52-45.133-3.787-63.154-5.115-20.84-17.054-31.726-38.753-35.404-0.032-0.005-0.059-0.009-0.086-0.014-0.371-0.172-1.351-0.682-3.055-1.984-1.975-1.518-4.221-3.647-6.597-5.901-5.233-4.962-11.166-10.583-19.101-14.455-0.167-0.086-0.339-0.163-0.511-0.239-26.665-12.061-58.472-26.069-92.205-38.477-35.694-13.181-57.844-33.122-68.237-61.884zM1193.615 51.851h-760.178c-10.615 0-19.214 8.604-19.214 19.214v38.102c0 5.215 2.119 10.203 5.87 13.823 9.946 9.602 21.979 17.98 39.019 27.171l13.19 7.094c17.248 9.3 35.088 18.911 53.262 27.691 18.884 8.834 38.052 16.778 56.584 24.46l10.529 4.37c8.034 3.366 16.105 6.661 24.166 9.955 12.169 4.975 24.74 10.108 36.963 15.4 4.632 11.595 8.527 23.692 11.419 33.009l0.416 1.428c2.431 8.396 6.701 23.163 22.625 29.891 1.767 13.728 3.253 28.274 4.523 44.238-16.841 19.159-26.968 41.599-31.157 68.771-0.682 4.406-2.887 9.652-5.21 15.21-2.020 4.812-4.108 9.792-5.743 15.309-4.117 14.419-7.93 29.702-11.708 46.895-0.976 4.618-1.152 8.753-1.306 12.399-0.095 2.205-0.181 4.288-0.434 5.798-2.878 19.657 4.654 29.973 13.854 35.409 0.249 17.14 0.212 34.708 0.181 51.726l-0.027 18.305c0.050 3.606 0.072 6.968 0.095 10.339 0.086 11.699 0.172 23.796 1.107 36.078 2.955 39.128 28.156 64.098 46.859 79.471 35.097 28.802 76.927 41.45 113.231 50.022 3.294 0.786 6.936 1.193 10.777 1.193 26.647 0 64.256-20.592 74.437-29.376l11.297-9.593c14.297-12.128 29.078-24.668 43.321-37.384 18.586-16.905 27.948-39.575 27.948-67.505 0.199-35.327 0.199-70.962 0.199-106.394 0-0.172 0-0.343-0.009-0.511l-0.014-0.515c-0.005-0.249-0.014-0.506-0.018-0.777 8.495-5.328 12.869-16.073 12.079-24.645-0.908-11.762-2.164-23.882-3.385-35.599-0.66-6.331-1.319-12.666-1.93-18.997-0.072-0.759-0.19-1.509-0.352-2.255-0.262-1.536-0.895-4.88-3.104-8.355-0.122-0.199-0.258-0.398-0.389-0.592-8.134-11.826-12.295-26.2-16.697-41.419-3.249-11.216-6.602-22.815-11.767-34.257-0.163-0.357-0.33-0.705-0.511-1.048-0.38-0.935-0.917-2.183-1.735-3.592-0.583-1.008-1.252-1.957-2.011-2.838-12.558-14.699-11.929-33.285-11.197-54.799 0.145-4.329 0.298-8.762 0.339-13.249 11.252-8.007 14.736-19.864 16.954-27.433l1.080-3.534c3.263-10.678 6.353-20.8 10.456-30.086 0.633-0.465 1.767-1.166 3.199-1.735 59.507-22.878 129.76-51.057 198.020-86.019 14.424-7.447 27.14-16.783 37.849-27.781 3.488-3.588 5.445-8.396 5.445-13.403v-39.851c0.014-10.633-8.586-19.232-19.2-19.232zM452.651 90.279h721.751v12.422c-6.611 5.834-14.13 10.94-22.44 15.228-66.602 34.112-135.671 61.812-194.446 84.405-5.305 2.11-17.763 8.093-23.362 19.81-5.626 12.282-9.399 24.627-13.050 36.566l-1.048 3.43c-0.027 0.077-0.131 0.438-0.154 0.515-0.723 2.463-1.812 6.191-2.544 7.103-11.627 4.618-15.974 18.238-15.974 26.213 0.077 5.599-0.108 11.080-0.307 16.882-0.85 25.029-1.807 53.303 18.491 78.766 0.194 0.425 0.416 0.877 0.669 1.356 3.859 8.753 6.629 18.301 9.548 28.4 4.695 16.218 9.535 32.951 19.516 48.811 0.524 5.364 1.084 10.732 1.64 16.096 0.935 9.001 1.898 18.247 2.702 27.384-12.142 9.53-11.735 24.424-11.563 30.709l0.005 0.239c0 35.278 0 70.75-0.199 106.028 0 17.23-4.844 29.607-15.242 39.069-13.751 12.273-28.342 24.654-42.458 36.629l-11.446 9.72c-5.54 4.776-34.446 20.122-49.426 20.122-1.175 0-1.753-0.113-1.902-0.149-33.665-7.953-68.775-18.572-97.713-42.327-21.631-17.79-31.487-33.552-32.933-52.688-0.84-10.976-0.917-22.404-1.003-33.452-0.023-3.452-0.050-6.891-0.095-10.321l0.027-17.971c0.036-18.12 0.072-36.859-0.235-55.242 0-0.203-0.009-0.407-0.018-0.61-0.339-6.972-3.751-20.741-14.026-26.936 0.398-2.96 0.524-5.924 0.637-8.581 0.099-2.363 0.199-4.596 0.479-5.942 3.574-16.263 7.194-30.786 11.039-44.257 0.985-3.33 2.585-7.144 4.275-11.184 2.973-7.090 6.344-15.129 7.754-24.193 3.095-20.086 10.452-36.367 22.499-49.796 5.969-6.43 9.666-16.408 9.196-25.174-0.009-0.154-0.018-0.307-0.032-0.461-1.518-19.494-3.339-36.999-5.572-53.506-0.041-0.271-0.081-0.538-0.127-0.804-1.753-9.792-9.765-21.446-21.288-24.266-0.556-1.387-1.243-3.76-1.735-5.45l-0.547-1.884c-3.276-10.542-7.623-24.026-12.928-37.162-3.281-8.188-10.605-15.816-18.635-19.376-13.109-5.698-26.304-11.089-39.060-16.299-7.962-3.253-15.929-6.507-23.9-9.842l-10.619-4.406c-18.147-7.519-36.909-15.296-54.799-23.665-17.198-8.305-33.872-17.298-51.532-26.814l-13.231-7.117c-10.357-5.585-18.256-10.633-24.65-15.798v-10.23z" />
<glyph unicode="&#xe91a;" glyph-name="avatar" d="M512 960c-282.626 0-512-229.374-512-512s229.374-512 512-512c282.626 0 512 229.374 512 512s-229.374 512-512 512zM512 935.040c269.128 0 487.040-217.912 487.040-487.040s-217.912-487.040-487.040-487.040c-269.128 0-487.040 217.912-487.040 487.040s217.912 487.040 487.040 487.040zM614.183 220.518c-3.039 33.551-1.873 56.966-1.873 87.624 15.194 7.972 42.418 58.798 47.017 101.736 11.947 0.978 30.783 12.634 36.298 58.652 2.976 24.705-8.846 38.609-16.047 42.98 19.44 58.465 59.818 239.333-74.678 258.023-13.841 24.31-49.286 36.611-95.346 36.611-184.281-3.393-206.51-139.158-166.111-294.634-7.181-4.371-19.003-18.274-16.047-42.98 5.536-46.018 24.352-57.674 36.298-58.652 4.579-42.917 32.885-93.764 48.12-101.736 0-30.658 1.145-54.073-1.894-87.624-26.246-70.557-161.033-76.073-238.791-144.112 81.297-81.859 213.045-140.407 352.078-140.407s302.459 109.77 329.662 139.72c-77.28 68.663-212.379 73.991-238.687 144.798z" />
<glyph unicode="&#xe91b;" glyph-name="logo" horiz-adv-x="894" d="M444.651 960c-240.344 0-432.336-189.602-443.72-427.061-0.406-7.416-1.894-13.57 3.404-18.868 3.562-3.539 16.185-3.539 16.185-3.539h122.381c0 0 15.374-1.037 19.792 3.314 5.838 5.884 5.207 13.187 5.748 21.235 7.507 116.16 68.37 207.343 165.279 246.251-0.18 1.285 8.183 5.455 22.677 9.4-0.518 3.945-0.924 7.98-0.924 12.060 0 48.533 39.359 87.869 87.847 87.869 48.511 0 87.847-39.336 87.847-87.869 0-5.004-0.518-9.941-1.353-14.743 15.757-2.998 25.923-5.703 25.743-6.853 97.653-39.539 157.615-132.886 163.431-251.503 0.338-6.312 2.637-11.181 7.191-15.734 3.967-3.945 15.689-3.426 15.689-3.426h132.165c0 0 10.031-0.947 13.57 2.615 4.283 4.283 6.402 9.58 6.154 15.667-9.626 239.398-207.365 431.186-449.107 431.186zM356.398 790.731c5.906-42.808 42.515-75.764 86.923-75.764 43.461 0 79.484 31.627 86.494 73.082-27.118 5.162-71.008 11.091-108.112 11.023-27.118-0.045-49.751-4.080-65.305-8.341zM879.174 488.125h-143.053c0 0-14.945 0.383-19.183-1.713-3.246-1.646-8.589-9.873-8.589-9.873l-182.546-241.336-28.448-37.871c21.28-16.027 35.143-41.432 35.143-70.129 0-48.488-39.336-87.824-87.847-87.824s-87.847 39.336-87.847 87.824c0 28.629 13.773 53.966 34.963 69.971l-28.493 37.736-189.422 247.828c0 0-2.705 2.998-4.193 3.719-2.096 1.059-9.31 1.646-9.31 1.646h-153.49c0 0-5.275 0.383-6.56-2.254-1.037-2.187 0.947-5.23 0.947-5.23l433.012-536.481c0 0 8.476-8.138 14.089-8.138 5.162 0 12.849 6.898 12.849 6.898l422.598 532.198c0 0 5.23 6.515 3.449 10.302-1.668 3.336-8.070 2.728-8.070 2.728zM497.377 197.354c-14.697 11.046-32.912 17.696-52.704 17.696-19.882 0-38.164-6.672-52.906-17.853l52.906-69.971 52.704 70.129z" />
<glyph unicode="&#xe91c;" glyph-name="email" horiz-adv-x="1059" d="M529.385 960l-529.385-395.36v-628.64h1058.76v628.64l-529.376 395.36zM382.921 678.016c15.532 28.323 36.878 49.679 64.049 63.789 27.264 14.463 58.318 21.7 93.078 21.7 29.651 0 55.856-5.824 78.968-17.204 22.675-11.732 40.325-27.877 52.679-49.317 12.085-21.003 18.263-44.115 18.263-69.261 0-29.995-9.261-56.822-27.877-81.355-23.112-30.255-52.763-45.434-88.935-45.434-9.614 0-16.851 1.319-22.053 4.765-4.858 3.437-8.295 8.648-9.614 15.179-13.85-13.414-29.995-20.297-47.905-20.297-19.675 0-35.559 6.883-48.62 20.297-12.791 13.497-19.322 31.407-19.322 53.469 0 27.877 7.942 52.67 23.474 75.429 18.616 27.97 42.703 41.737 71.992 41.737 21.087 0 36.535-7.942 46.233-23.818l4.412 19.322h46.586l-26.558-126.167c-1.672-7.859-2.378-13.061-2.378-15.439 0-3.177 0.706-5.202 2.034-6.614 1.412-1.328 2.731-2.034 4.849-2.034 5.471 0 12.708 3.084 21.709 9.967 12.085 9.001 21.709 21.003 28.936 35.819 7.589 15.179 11.379 30.701 11.379 46.939 0 28.583-10.32 53.023-31.416 72.354-20.994 19.322-50.292 29.289-87.523 29.289-31.676 0-58.94-6.53-80.993-19.675-22.062-12.708-38.56-31.323-49.939-54.788-11.379-23.381-16.851-47.905-16.851-73.404 0-24.793 6.53-47.208 18.885-67.496 12.438-20.381 30.004-35.206 52.41-44.468 22.768-9.354 48.62-14.12 77.909-14.12 27.877 0 52.057 3.79 72.001 11.649 20.381 7.942 36.525 19.675 48.973 35.206h37.584c-11.732-23.827-30.004-42.433-54.175-56.2-27.877-15.179-61.671-23.121-101.643-23.121-38.903 0-72.345 6.614-100.315 19.675-28.239 13.061-49.233 32.382-63 57.881-13.85 25.499-20.734 53.469-20.734 83.464-0.019 33.079 7.914 63.696 23.446 92.279v0zM37.231 552.286l390.864-261.957-390.864-302.272v564.229zM66.883-32.24l462.502 357.682 462.502-357.682h-925.005zM1021.538-11.943l-390.864 302.272 390.864 261.957v-564.229zM548.706 649.080c6.177-6.883 9.261-17.204 9.261-30.255 0-12.085-2.378-24.886-6.883-38.643s-9.967-24.087-16.238-31.323c-4.059-4.849-8.555-8.648-13.061-11.026-5.824-3.177-12.085-4.849-18.969-4.849-8.918 0-16.154 3.437-22.415 10.673-6.177 6.883-8.908 17.91-8.908 32.735 0 11.026 2.034 24.171 6.53 38.643 4.152 14.473 10.683 25.146 19.322 33.088 8.555 7.859 17.91 11.649 27.877 11.649 9.364-0.019 17.222-3.465 23.483-10.692v0z" />
<glyph unicode="&#xe91d;" glyph-name="polls" horiz-adv-x="1173" d="M571.382 411.921v10.868c0 12.454 2.265 22.814 6.792 31.079 4.527 8.261 12.454 16.812 23.776 25.641 13.471 10.64 22.161 18.908 26.067 24.793s5.856 12.905 5.856 21.056c0 9.509-3.172 16.812-9.509 21.908-6.341 5.096-15.453 7.644-27.341 7.644-10.757 0-20.718-1.531-29.889-4.586-9.171-3.058-18.115-6.737-26.831-11.040l-14.264 29.889c22.98 12.791 47.608 19.191 73.873 19.191 22.19 0 39.795-5.434 52.818-16.301 13.015-10.868 19.529-25.873 19.529-45.001 0-8.492-1.248-16.048-3.734-22.671-2.489-6.623-6.256-12.935-11.293-18.934-5.037-6.003-13.728-13.812-26.067-23.435-10.53-8.264-17.579-15.115-21.144-20.549s-5.349-12.736-5.349-21.908v-7.64h-33.289zM564.417 357.748c0 17.091 8.32 25.641 24.962 25.641 8.154 0 14.377-2.236 18.684-6.708 4.299-4.476 6.454-10.783 6.454-18.934 0-8.041-2.185-14.407-6.539-19.106-4.358-4.696-10.559-7.046-18.596-7.046s-14.209 2.291-18.508 6.877c-4.31 4.586-6.458 11.011-6.458 19.275zM923.486 42.865l-150.523 150.523h-443.186c-44.072 0-79.931 35.859-79.931 79.931v385.331c0 44.076 35.859 79.931 79.931 79.931h513.777c44.076 0 79.931-35.859 79.931-79.931v-615.785zM329.778 707.359c-26.857 0-48.709-21.853-48.709-48.713v-385.327c0-26.86 21.849-48.713 48.709-48.713h456.12l106.366-106.37v540.413c0 26.86-21.853 48.713-48.713 48.713h-513.773z" />
</font></defs></svg>