<?xml version="1.0" encoding="UTF-8" standalone="no"?>
<!-- Created with Inkscape (http://www.inkscape.org/) -->

<svg
   xmlns:dc="http://purl.org/dc/elements/1.1/"
   xmlns:cc="http://creativecommons.org/ns#"
   xmlns:rdf="http://www.w3.org/1999/02/22-rdf-syntax-ns#"
   xmlns:svg="http://www.w3.org/2000/svg"
   xmlns="http://www.w3.org/2000/svg"
   xmlns:sodipodi="http://sodipodi.sourceforge.net/DTD/sodipodi-0.dtd"
   xmlns:inkscape="http://www.inkscape.org/namespaces/inkscape"
   id="svg9393"
   version="1.1"
   inkscape:version="0.91 r13725"
   width="407.77414"
   height="479.92252"
   viewBox="0 0 407.77414 479.92252"
   sodipodi:docname="air.svg">
  <metadata
     id="metadata9399">
    <rdf:RDF>
      <cc:Work
         rdf:about="">
        <dc:format>image/svg+xml</dc:format>
        <dc:type
           rdf:resource="http://purl.org/dc/dcmitype/StillImage" />
        <dc:title></dc:title>
      </cc:Work>
    </rdf:RDF>
  </metadata>
  <defs
     id="defs9397" />
  <sodipodi:namedview
     pagecolor="#ffffff"
     bordercolor="#666666"
     borderopacity="1"
     objecttolerance="10"
     gridtolerance="10"
     guidetolerance="10"
     inkscape:pageopacity="0"
     inkscape:pageshadow="2"
     inkscape:window-width="1366"
     inkscape:window-height="708"
     id="namedview9395"
     showgrid="false"
     fit-margin-top="0"
     fit-margin-left="0"
     fit-margin-right="0"
     fit-margin-bottom="0"
     inkscape:zoom="1.5615275"
     inkscape:cx="256.4277"
     inkscape:cy="463.67746"
     inkscape:window-x="0"
     inkscape:window-y="0"
     inkscape:window-maximized="1"
     inkscape:current-layer="svg9393" />
  <g
     id="g12338"
     transform="matrix(1.25,0,0,-1.25,396.8125,346.96795)"
     style="fill:#000000">
    <path
       d="M 0,0 0,7.82 C 2.17,6.46 4.34,5.09 6.51,3.73 4.34,2.49 2.17,1.24 0,0 m -108.87,-82.97 c 0.71,-1.25 1.42,-2.49 2.14,-3.74 -0.71,0.32 -1.43,0.63 -2.14,0.95 l 0,2.79 z m 0,-19.03 0,5.82 c 1.82,-0.549 3.65,-1.1 5.47,-1.65 -1.83,-1.39 -3.65,-2.78 -5.47,-4.17 m -48.59,3.061 c 1.29,1.109 2.43,2.299 3.44,3.559 0.77,-1.37 1.65,-2.61 2.68,-3.559 l -6.12,0 z M -201.08,-102 c -1.82,1.39 -3.65,2.78 -5.47,4.17 1.82,0.61 3.65,1.22 5.47,1.84 l 0,-6.01 z m 0,18.34 0,-2.569 c -0.71,-0.391 -1.43,-0.771 -2.14,-1.161 0.72,1.24 1.43,2.49 2.14,3.73 M -308.8,-1.15 c -2.17,1.25 -4.34,2.49 -6.51,3.74 2.17,1.48 4.34,2.96 6.51,4.44 l 0,-8.18 z m 0,29.67 0,-1.85 c -0.27,-0.29 -0.44,-0.49 -0.54,-0.62 0.19,0.34 0.54,1.19 0.54,2.47 M 1.26,25.59 C 0.84,25.97 0.42,26.34 0,26.72 l 0,1.93 c 0,4.15 4.79,5.21 7.24,3.19 -31.64,28.25 -63.29,56.5 -94.94,84.76 -7.92,7.07 -15.84,14.15 -23.77,21.22 -2.26,2.02 -4.52,4.04 -6.78,6.06 -0.64,0.57 -1.27,1.14 -1.91,1.7 -1.4,1.25 0.18,0.05 0.06,1.07 -4.14,36.13 -7.76,73.69 -18.42,108.63 -2.3,7.53 -8.78,27.89 -20.6,20.83 -9.7,-5.79 -12.51,-23.43 -14.91,-33.26 -7.63,-31.39 -11.43,-63.89 -14.71,-95.99 -0.05,-0.5 -0.1,-0.99 -0.14,-1.49 2.44,2.18 -0.21,-2.05 -0.18,-1.79 0.05,0.6 0.11,1.2 0.17,1.79 -4.65,-4.16 -9.31,-8.32 -13.97,-12.48 -18.95,-16.91 -37.89,-33.83 -56.83,-50.74 -16.75,-14.96 -33.51,-29.92 -50.26,-44.87 -2.31,-2.07 -7.5,-5.19 -7.5,-8.76 l 0,-29.67 c 0,-3.1 3.74,-5.62 6.51,-3.73 40.36,27.52 80.73,55.03 121.09,82.56 -0.13,2.63 -0.26,5.26 -0.39,7.89 2.17,-1.24 4.34,-2.49 6.5,-3.73 -2.04,-1.39 -4.07,-2.78 -6.11,-4.16 2.36,-46.56 5.66,-93.86 15.96,-139.4 0.92,0.5 1.85,1 2.77,1.5 -0.66,-1.63 -1.33,-3.259 -1.99,-4.88 -0.26,1.13 -0.52,2.25 -0.78,3.38 -11.23,-6.07 -22.46,-12.14 -33.69,-18.21 -1.33,-0.71 -2.15,-2.25 -2.15,-3.73 l 0,-18.34 c 0,-2.689 2.79,-5.07 5.48,-4.17 13.22,4.441 26.45,8.87 39.67,13.31 -0.57,1.46 -1.1,2.9 -1.63,4.26 1.78,-1.01 3.55,-2.01 5.32,-3.02 -1.23,-0.41 -2.46,-0.83 -3.69,-1.24 1.72,-4.44 3.77,-9.09 7.12,-12.19 1.83,-1.7 4.27,-1.58 6.12,0 3.42,2.93 5.92,6.39 8.07,10.22 -1.1,0.33 -2.19,0.66 -3.29,0.99 1.63,0.66 3.26,1.33 4.89,1.99 -0.51,-1.01 -1.04,-2.01 -1.6,-2.98 12.52,-3.78 25.05,-7.56 37.57,-11.34 2.7,-0.809 5.47,1.41 5.47,4.17 l 0,19.03 c 0,1.39 -0.79,3.13 -2.14,3.73 -10.23,4.54 -20.45,9.07 -30.68,13.6 -0.29,-1.21 -0.58,-2.41 -0.87,-3.61 -0.66,1.62 -1.32,3.25 -1.99,4.88 0.95,-0.42 1.91,-0.85 2.86,-1.27 10.52,44.98 12.33,92.95 12.23,139.16 -2.18,1.37 -4.36,2.74 -6.54,4.11 2.17,1.25 4.34,2.49 6.51,3.74 0.01,-2.61 0.03,-5.23 0.03,-7.85 C -79.83,47.77 -38.85,22.02 2.14,-3.73 4.94,-5.5 8.65,-3.2 8.65,0 l 0,27.94 C 7.94,25.15 4.13,23.03 1.26,25.59"
       style="fill:#000000;fill-opacity:1;fill-rule:nonzero;stroke:none"
       id="path12340"
       inkscape:connector-curvature="0" />
  </g>
  <g
     id="g12342"
     transform="matrix(1.25,0,0,-1.25,10.1378,314.40508)"
     style="fill:#000000">
    <path
       d="m 0,0 c 0.19,0.34 0.54,1.19 0.54,2.47 l 0,-1.85 C 0.27,0.33 0.1,0.13 0,0"
       style="fill:#000000;fill-opacity:1;fill-rule:nonzero;stroke:none"
       id="path12344"
       inkscape:connector-curvature="0" />
  </g>
  <g
     id="g12346"
     transform="matrix(1.25,0,0,-1.25,2.6749,343.73058)"
     style="fill:#000000">
    <path
       d="m 0,0 c 2.17,1.48 4.34,2.96 6.51,4.44 l 0,-8.18 C 4.34,-2.49 2.17,-1.25 0,0"
       style="fill:#000000;fill-opacity:1;fill-rule:nonzero;stroke:none"
       id="path12348"
       inkscape:connector-curvature="0" />
  </g>
  <g
     id="g12350"
     transform="matrix(1.25,0,0,-1.25,142.7873,456.20496)"
     style="fill:#000000">
    <path
       d="m 0,0 c 0.72,1.239 1.43,2.489 2.14,3.729 l 0,-2.569 C 1.43,0.77 0.71,0.39 0,0"
       style="fill:#000000;fill-opacity:1;fill-rule:nonzero;stroke:none"
       id="path12352"
       inkscape:connector-curvature="0" />
  </g>
  <g
     id="g12354"
     transform="matrix(1.25,0,0,-1.25,138.6246,469.25558)"
     style="fill:#000000">
    <path
       d="m 0,0 c 1.82,0.61 3.65,1.22 5.47,1.84 l 0,-6.01 C 3.65,-2.78 1.82,-1.39 0,0"
       style="fill:#000000;fill-opacity:1;fill-rule:nonzero;stroke:none"
       id="path12356"
       inkscape:connector-curvature="0" />
  </g>
  <g
     id="g12362"
     transform="matrix(1.25,0,0,-1.25,159.0123,240.00508)"
     style="fill:#000000">
    <path
       d="M 0,0 C 2.17,-1.24 4.34,-2.49 6.5,-3.73 4.46,-5.12 2.43,-6.51 0.39,-7.89 0.26,-5.26 0.13,-2.63 0,0"
       style="fill:#000000;fill-opacity:1;fill-rule:nonzero;stroke:none"
       id="path12364"
       inkscape:connector-curvature="0" />
  </g>
  <g
     id="g12366"
     transform="matrix(1.25,0,0,-1.25,179.4499,424.11758)"
     style="fill:#000000">
    <path
       d="M 0,0 C 0.92,0.5 1.85,1 2.77,1.5 2.11,-0.13 1.44,-1.76 0.78,-3.38 0.52,-2.25 0.26,-1.13 0,0"
       style="fill:#000000;fill-opacity:1;fill-rule:nonzero;stroke:none"
       id="path12368"
       inkscape:connector-curvature="0" />
  </g>
  <g
     id="g12370"
     transform="matrix(1.25,0,0,-1.25,189.05,457.71745)"
     style="fill:#000000">
    <path
       d="M 0,0 C 1.78,-1.011 3.55,-2.011 5.32,-3.02 4.09,-3.431 2.86,-3.851 1.63,-4.261 1.06,-2.801 0.53,-1.36 0,0"
       style="fill:#000000;fill-opacity:1;fill-rule:nonzero;stroke:none"
       id="path12372"
       inkscape:connector-curvature="0" />
  </g>
  <g
     id="g12374"
     transform="matrix(1.25,0,0,-1.25,204.2875,466.19283)"
     style="fill:#000000">
    <path
       d="m 0,0 c 0.77,-1.37 1.65,-2.61 2.68,-3.559 l -6.12,0 C -2.15,-2.45 -1.01,-1.26 0,0"
       style="fill:#000000;fill-opacity:1;fill-rule:nonzero;stroke:none"
       id="path12376"
       inkscape:connector-curvature="0" />
  </g>
  <g
     id="g12378"
     transform="matrix(1.25,0,0,-1.25,213.6124,464.2677)"
     style="fill:#000000">
    <path
       d="M 0,0 C 1.63,0.66 3.26,1.33 4.89,1.99 4.38,0.98 3.85,-0.02 3.29,-0.99 2.19,-0.66 1.1,-0.33 0,0"
       style="fill:#000000;fill-opacity:1;fill-rule:nonzero;stroke:none"
       id="path12380"
       inkscape:connector-curvature="0" />
  </g>
  <g
     id="g12382"
     transform="matrix(1.25,0,0,-1.25,226.9249,427.43058)"
     style="fill:#000000">
    <path
       d="M 0,0 C 0.95,-0.42 1.91,-0.85 2.86,-1.27 2.57,-2.48 2.28,-3.68 1.99,-4.88 1.33,-3.26 0.67,-1.63 0,0"
       style="fill:#000000;fill-opacity:1;fill-rule:nonzero;stroke:none"
       id="path12384"
       inkscape:connector-curvature="0" />
  </g>
  <g
     id="g12386"
     transform="matrix(1.25,0,0,-1.25,245.7499,245.25533)"
     style="fill:#000000">
    <path
       d="m 0,0 c 0.01,-2.61 0.03,-5.23 0.03,-7.85 -2.18,1.37 -4.36,2.74 -6.54,4.11 2.17,1.25 4.34,2.49 6.51,3.74"
       style="fill:#000000;fill-opacity:1;fill-rule:nonzero;stroke:none"
       id="path12388"
       inkscape:connector-curvature="0" />
  </g>
  <g
     id="g12390"
     transform="matrix(1.25,0,0,-1.25,263.4,455.35533)"
     style="fill:#000000">
    <path
       d="m 0,0 c -0.71,0.32 -1.43,0.63 -2.14,0.95 l 0,2.79 C -1.43,2.49 -0.72,1.25 0,0"
       style="fill:#000000;fill-opacity:1;fill-rule:nonzero;stroke:none"
       id="path12392"
       inkscape:connector-curvature="0" />
  </g>
  <g
     id="g12394"
     transform="matrix(1.25,0,0,-1.25,260.7249,467.19258)"
     style="fill:#000000">
    <path
       d="M 0,0 C 1.82,-0.55 3.65,-1.101 5.47,-1.65 3.64,-3.04 1.82,-4.431 0,-5.82 L 0,0 Z"
       style="fill:#000000;fill-opacity:1;fill-rule:nonzero;stroke:none"
       id="path12396"
       inkscape:connector-curvature="0" />
  </g>
  <g
     id="g12398"
     transform="matrix(1.25,0,0,-1.25,396.8125,337.19258)"
     style="fill:#000000">
    <path
       d="M 0,0 C 2.17,-1.36 4.34,-2.73 6.51,-4.09 4.34,-5.33 2.17,-6.58 0,-7.82 L 0,0 Z"
       style="fill:#000000;fill-opacity:1;fill-rule:nonzero;stroke:none"
       id="path12400"
       inkscape:connector-curvature="0" />
  </g>
  <g
     id="g12402"
     transform="matrix(1.25,0,0,-1.25,407.6249,312.04296)"
     style="fill:#000000">
    <path
       d="m 0,0 c -0.71,-2.79 -4.52,-4.91 -7.39,-2.35 -0.42,0.38 -0.84,0.75 -1.26,1.13 l 0,1.93 c 0,4.15 4.79,5.21 7.24,3.19 C -1.39,3.88 -1.37,3.86 -1.35,3.85 -1.32,3.82 -1.29,3.8 -1.27,3.77 -1.18,3.69 -1.09,3.6 -1.01,3.51 0.06,2.42 0.3,1.15 0,0"
       style="fill:#000000;fill-opacity:1;fill-rule:nonzero;stroke:none"
       id="path12404"
       inkscape:connector-curvature="0" />
  </g>
  <g
     id="g12410"
     transform="matrix(1.25,0,0,-1.25,107.0499,305.5312)"
     style="fill:#000000">
    <path
       d="M 0,0 0,-39.819"
       style="fill:#000000;fill-opacity:1;fill-rule:nonzero;stroke:none"
       id="path12412"
       inkscape:connector-curvature="0" />
  </g>
  <g
     id="g12414"
     transform="matrix(1.25,0,0,-1.25,103.2999,305.5312)"
     style="fill:#000000">
    <path
       d="m 0,0 0,-39.819 c 0,-3.869 6,-3.869 6,0 L 6,0 C 6,3.869 0,3.869 0,0"
       style="fill:#000000;fill-opacity:1;fill-rule:nonzero;stroke:none"
       id="path12416"
       inkscape:connector-curvature="0" />
  </g>
  <g
     id="g12418"
     transform="matrix(1.25,0,0,-1.25,74.5499,320.98645)"
     style="fill:#000000">
    <path
       d="M 0,0 0,-47.455"
       style="fill:#000000;fill-opacity:1;fill-rule:nonzero;stroke:none"
       id="path12420"
       inkscape:connector-curvature="0" />
  </g>
  <g
     id="g12422"
     transform="matrix(1.25,0,0,-1.25,70.7999,320.98645)"
     style="fill:#000000">
    <path
       d="m 0,0 0,-47.455 c 0,-3.869 6,-3.869 6,0 L 6,0 C 6,3.869 0,3.869 0,0"
       style="fill:#000000;fill-opacity:1;fill-rule:nonzero;stroke:none"
       id="path12424"
       inkscape:connector-curvature="0" />
  </g>
  <g
     id="g12426"
     transform="matrix(1.25,0,0,-1.25,288.2999,313.25883)"
     style="fill:#000000">
    <path
       d="M 0,0 0,-39.819"
       style="fill:#000000;fill-opacity:1;fill-rule:nonzero;stroke:none"
       id="path12428"
       inkscape:connector-curvature="0" />
  </g>
  <g
     id="g12430"
     transform="matrix(1.25,0,0,-1.25,284.5499,313.25883)"
     style="fill:#000000">
    <path
       d="m 0,0 0,-39.819 c 0,-3.87 6,-3.87 6,0 L 6,0 C 6,3.869 0,3.869 0,0"
       style="fill:#000000;fill-opacity:1;fill-rule:nonzero;stroke:none"
       id="path12432"
       inkscape:connector-curvature="0" />
  </g>
  <g
     id="g12434"
     transform="matrix(1.25,0,0,-1.25,320.7999,328.71421)"
     style="fill:#000000">
    <path
       d="M 0,0 0,-47.455"
       style="fill:#000000;fill-opacity:1;fill-rule:nonzero;stroke:none"
       id="path12436"
       inkscape:connector-curvature="0" />
  </g>
  <g
     id="g12438"
     transform="matrix(1.25,0,0,-1.25,317.0499,328.71421)"
     style="fill:#000000">
    <path
       d="m 0,0 0,-47.455 c 0,-3.869 6,-3.869 6,0 L 6,0 C 6,3.869 0,3.869 0,0"
       style="fill:#000000;fill-opacity:1;fill-rule:nonzero;stroke:none"
       id="path12440"
       inkscape:connector-curvature="0" />
  </g>
</svg>
