<?xml version="1.0" encoding="UTF-8" standalone="no"?>
<!-- Created with Inkscape (http://www.inkscape.org/) -->

<svg
   xmlns:dc="http://purl.org/dc/elements/1.1/"
   xmlns:cc="http://creativecommons.org/ns#"
   xmlns:rdf="http://www.w3.org/1999/02/22-rdf-syntax-ns#"
   xmlns:svg="http://www.w3.org/2000/svg"
   xmlns="http://www.w3.org/2000/svg"
   xmlns:sodipodi="http://sodipodi.sourceforge.net/DTD/sodipodi-0.dtd"
   xmlns:inkscape="http://www.inkscape.org/namespaces/inkscape"
   width="73.812523mm"
   height="65.712021mm"
   viewBox="0 0 261.54044 232.83787"
   id="svg15892"
   version="1.1"
   inkscape:version="0.91 r13725"
   sodipodi:docname="you-heart.svg">
  <defs
     id="defs15894" />
  <sodipodi:namedview
     id="base"
     pagecolor="#ffffff"
     bordercolor="#666666"
     borderopacity="1.0"
     inkscape:pageopacity="0.0"
     inkscape:pageshadow="2"
     inkscape:zoom="1.4"
     inkscape:cx="61.431733"
     inkscape:cy="151.76181"
     inkscape:document-units="px"
     inkscape:current-layer="layer1"
     showgrid="false"
     fit-margin-top="0"
     fit-margin-left="0"
     fit-margin-right="0"
     fit-margin-bottom="0"
     inkscape:window-width="1366"
     inkscape:window-height="708"
     inkscape:window-x="0"
     inkscape:window-y="0"
     inkscape:window-maximized="1" />
  <metadata
     id="metadata15897">
    <rdf:RDF>
      <cc:Work
         rdf:about="">
        <dc:format>image/svg+xml</dc:format>
        <dc:type
           rdf:resource="http://purl.org/dc/dcmitype/StillImage" />
        <dc:title></dc:title>
      </cc:Work>
    </rdf:RDF>
  </metadata>
  <g
     inkscape:label="Layer 1"
     inkscape:groupmode="layer"
     id="layer1"
     transform="translate(-360.65835,-530.22899)">
    <g
       id="g4878"
       transform="matrix(1.25,0,0,-1.25,551.23428,530.22949)">
      <path
         d="m 0,0 c -20.999,-0.291 -39.957,-11.456 -50.31,-29.746 l 5.181,0 c -15.55,27.411 -50.331,37.791 -77.956,22.173 -14.13,-7.989 -24.128,-22.296 -27.839,-37.949 -3.917,-16.526 0.036,-35.74 7.535,-50.738 0.464,-0.928 1.587,-1.486 2.59,-1.486 l 44.575,0 c 1.039,0 2.081,0.568 2.59,1.486 2.75,4.953 5.5,9.906 8.25,14.86 1.052,1.896 3.469,7.606 6.334,3.571 0.805,-1.134 1.399,-2.501 2.076,-3.713 5.561,-9.944 11.122,-19.889 16.683,-29.833 1.036,-1.852 4.203,-2.057 5.181,0 9.243,19.454 18.487,38.908 27.731,58.362 1.207,2.541 4.391,7.058 6.195,2.089 1.703,-4.689 3.405,-9.378 5.107,-14.066 3.696,-10.178 7.391,-20.355 11.086,-30.533 0.461,-1.269 1.478,-2.203 2.893,-2.203 l 47.436,0 c 0.998,0 2.133,0.558 2.59,1.486 10.146,20.596 12.669,45.492 1.682,66.166 C 39.98,-11.952 20.381,-0.298 0,0 c -3.871,0.057 -3.866,-5.943 0,-6 18.234,-0.267 34.349,-10.362 43.707,-25.833 11.14,-18.42 8.229,-42.726 -0.959,-61.378 0.863,0.495 1.726,0.99 2.59,1.485 l -47.436,0 c 0.965,-0.734 1.929,-1.468 2.893,-2.202 -4.109,11.319 -8.219,22.638 -12.329,33.957 -1.393,3.838 -2.787,7.675 -4.18,11.513 -2.538,6.991 -12.41,7.809 -15.682,0.922 -9.632,-20.27 -19.264,-40.54 -28.895,-60.81 l 5.181,0 c -6.168,11.03 -12.336,22.059 -18.504,33.089 -3.854,6.891 -12.177,5.486 -15.651,-0.774 -3.184,-5.733 -6.366,-11.467 -9.549,-17.201 0.863,0.495 1.727,0.991 2.59,1.486 l -44.575,0 c 0.864,-0.495 1.727,-0.991 2.591,-1.486 -6.654,13.308 -9.814,29.757 -7.271,44.451 2.529,14.61 11.811,27.406 24.195,35.29 24.558,15.634 57.023,5.31 70.974,-19.283 1.104,-1.947 4.078,-1.95 5.181,0 C -35.808,-16.307 -18.93,-6.262 0,-6 3.866,-5.946 3.871,0.054 0,0"
         style="fill:#58595b;fill-opacity:1;fill-rule:nonzero;stroke:none"
         id="path4880"
         inkscape:connector-curvature="0" />
    </g>
    <g
       id="g4882"
       transform="matrix(1.25,0,0,-1.25,551.23428,537.72949)">
      <path
         d="M 0,0 C 3.869,0 3.869,6 0,6 -3.869,6 -3.869,0 0,0"
         style="fill:#58595b;fill-opacity:1;fill-rule:nonzero;stroke:none"
         id="path4884"
         inkscape:connector-curvature="0" />
    </g>
    <g
       id="g4886"
       transform="matrix(1.25,0,0,-1.25,536.1909,662.38098)">
      <path
         d="m 0,0 c -3.378,9.318 -6.756,18.636 -10.134,27.954 -0.798,2.203 -4.267,3.275 -5.483,0.717 -8.343,-17.561 -16.686,-35.122 -25.029,-52.682 -0.852,-1.795 -3.689,-8.987 -6.386,-4.16 -1.779,3.179 -3.556,6.359 -5.334,9.539 -4.725,8.452 -9.45,16.903 -14.176,25.356 -1.087,1.946 -4.094,1.953 -5.18,0 -1.602,-2.88 -3.138,-8.124 -7.053,-8.124 l -13.608,0 -26.5,0 c -2.09,0 -3.985,-2.623 -2.59,-4.514 13.008,-17.631 29.252,-32.654 46.023,-46.638 7.176,-5.983 14.549,-11.732 22.029,-17.33 5.097,-3.814 11.225,-9.982 17.769,-10.638 5.513,-0.551 12.831,6.979 16.897,10 7.405,5.5 14.665,11.196 21.785,17.06 17.204,14.171 33.857,29.556 47.138,47.546 1.395,1.891 -0.501,4.514 -2.59,4.514 l -22.659,0 -15.577,0 C 6.503,-1.4 1.369,-2.555 -0.303,0.717 -2.063,4.163 -7.24,1.126 -5.483,-2.312 -3.262,-6.659 0.519,-7.4 4.913,-7.4 l 15.044,0 27.621,0 c -0.864,1.505 -1.727,3.009 -2.591,4.514 -12.104,-16.396 -27.323,-30.425 -42.839,-43.528 -6.922,-5.847 -14.035,-11.468 -21.265,-16.929 -2.725,-2.058 -5.474,-4.082 -8.237,-6.088 -2.253,-1.635 -5.423,-4.8 -8.298,-5.089 -2.244,-0.224 -5.878,3.337 -7.586,4.567 -2.702,1.944 -5.379,3.923 -8.044,5.917 -7.164,5.362 -14.173,10.931 -21.046,16.661 -15.956,13.305 -31.589,27.715 -43.965,44.489 -0.863,-1.505 -1.727,-3.009 -2.59,-4.514 l 30.215,0 10.943,0 c 6.297,0 8.618,6.483 11.183,11.095 l -5.18,0 c 5.142,-9.198 10.284,-18.396 15.427,-27.594 1.664,-2.976 3.56,-8.239 6.664,-10.114 4.891,-2.954 10.362,-1.033 12.758,4.008 8.812,18.549 17.625,37.098 26.437,55.648 -1.828,0.238 -3.656,0.477 -5.483,0.716 C -12.542,17.041 -9.164,7.723 -5.786,-1.595 -4.478,-5.203 1.321,-3.646 0,0"
         style="fill:#58595b;fill-opacity:1;fill-rule:nonzero;stroke:none"
         id="path4888"
         inkscape:connector-curvature="0" />
    </g>
    <g
       id="g4890"
       transform="matrix(1.25,0,0,-1.25,532.57453,667.12773)">
      <path
         d="M 0,0 C 3.869,0 3.869,6 0,6 -3.869,6 -3.869,0 0,0"
         style="fill:#58595b;fill-opacity:1;fill-rule:nonzero;stroke:none"
         id="path4892"
         inkscape:connector-curvature="0" />
    </g>
    <g
       id="g4894"
       transform="matrix(1.25,0,0,-1.25,371.99777,650.55486)">
      <path
         d="m 0,0 c 3.294,-5.125 6.587,-10.25 9.881,-15.375 2.084,-3.243 7.28,-0.237 5.181,3.028 C 11.769,-7.222 8.475,-2.097 5.181,3.028 3.097,6.271 -2.099,3.266 0,0"
         style="fill:#58595b;fill-opacity:1;fill-rule:nonzero;stroke:none"
         id="path4896"
         inkscape:connector-curvature="0" />
    </g>
    <g
       id="g4898"
       transform="matrix(1.25,0,0,-1.25,598.9009,669.77361)">
      <path
         d="M 0,0 C 3.287,5.176 6.573,10.352 9.86,15.527 11.94,18.804 6.746,21.811 4.679,18.556 1.393,13.38 -1.894,8.204 -5.181,3.028 -7.262,-0.249 -2.067,-3.255 0,0"
         style="fill:#58595b;fill-opacity:1;fill-rule:nonzero;stroke:none"
         id="path4900"
         inkscape:connector-curvature="0" />
    </g>
  </g>
</svg>
