<?xml version="1.0" encoding="UTF-8" standalone="no"?>
<!-- Created with Inkscape (http://www.inkscape.org/) -->

<svg
   xmlns:dc="http://purl.org/dc/elements/1.1/"
   xmlns:cc="http://creativecommons.org/ns#"
   xmlns:rdf="http://www.w3.org/1999/02/22-rdf-syntax-ns#"
   xmlns:svg="http://www.w3.org/2000/svg"
   xmlns="http://www.w3.org/2000/svg"
   xmlns:sodipodi="http://sodipodi.sourceforge.net/DTD/sodipodi-0.dtd"
   xmlns:inkscape="http://www.inkscape.org/namespaces/inkscape"
   width="74.615814mm"
   height="44.63274mm"
   viewBox="0 0 264.38674 158.1475"
   id="svg15281"
   version="1.1"
   inkscape:version="0.91 r13725"
   sodipodi:docname="you-physical-activity.svg">
  <defs
     id="defs15283" />
  <sodipodi:namedview
     id="base"
     pagecolor="#ffffff"
     bordercolor="#666666"
     borderopacity="1.0"
     inkscape:pageopacity="0.0"
     inkscape:pageshadow="2"
     inkscape:zoom="0.35"
     inkscape:cx="-278.52091"
     inkscape:cy="207.64518"
     inkscape:document-units="px"
     inkscape:current-layer="layer1"
     showgrid="false"
     fit-margin-top="0"
     fit-margin-left="0"
     fit-margin-right="0"
     fit-margin-bottom="0"
     inkscape:window-width="1366"
     inkscape:window-height="708"
     inkscape:window-x="0"
     inkscape:window-y="0"
     inkscape:window-maximized="1" />
  <metadata
     id="metadata15286">
    <rdf:RDF>
      <cc:Work
         rdf:about="">
        <dc:format>image/svg+xml</dc:format>
        <dc:type
           rdf:resource="http://purl.org/dc/dcmitype/StillImage" />
        <dc:title></dc:title>
      </cc:Work>
    </rdf:RDF>
  </metadata>
  <g
     inkscape:label="Layer 1"
     inkscape:groupmode="layer"
     id="layer1"
     transform="translate(-179.2352,-581.85988)">
    <g
       id="g4902"
       transform="matrix(1.25,0,0,-1.25,225.88685,588.94613)">
      <path
         d="m 0,0 c -5.662,0 -10.269,-4.607 -10.269,-10.27 l 0,-94.641 c 0,-5.662 4.607,-10.269 10.269,-10.269 l 0.728,0 c 5.663,0 10.271,4.607 10.271,10.269 l 0,94.641 C 10.999,-4.607 6.391,0 0.728,0 L 0,0 Z m 0.728,-120.849 -0.728,0 c -8.788,0 -15.938,7.15 -15.938,15.938 l 0,94.641 c 0,8.789 7.15,15.939 15.938,15.939 l 0.728,0 c 8.789,0 15.939,-7.15 15.939,-15.939 l 0,-94.641 c 0,-8.788 -7.15,-15.938 -15.939,-15.938"
         style="fill:#58595b;fill-opacity:1;fill-rule:nonzero;stroke:none"
         id="path4904"
         inkscape:connector-curvature="0" />
    </g>
    <g
       id="g4906"
       transform="matrix(1.25,0,0,-1.25,195.61645,605.27913)">
      <path
         d="m 0,0 c -4.1,0 -7.436,-3.335 -7.436,-7.436 l 0,-74.175 c 0,-4.1 3.336,-7.436 7.436,-7.436 l 0.571,0 c 4.1,0 7.436,3.336 7.436,7.436 l 0,74.175 C 8.007,-3.335 4.671,0 0.571,0 L 0,0 Z m 0.571,-94.716 -0.571,0 c -7.226,0 -13.105,5.879 -13.105,13.105 l 0,74.175 c 0,7.227 5.879,13.105 13.105,13.105 l 0.571,0 c 7.226,0 13.105,-5.878 13.105,-13.105 l 0,-74.175 c 0,-7.226 -5.879,-13.105 -13.105,-13.105"
         style="fill:#58595b;fill-opacity:1;fill-rule:nonzero;stroke:none"
         id="path4908"
         inkscape:connector-curvature="0" />
    </g>
    <g
       id="g4910"
       transform="matrix(1.25,0,0,-1.25,396.05885,588.94613)">
      <path
         d="m 0,0 c -5.662,0 -10.269,-4.607 -10.269,-10.27 l 0,-94.641 c 0,-5.662 4.607,-10.269 10.269,-10.269 l 0.728,0 c 5.663,0 10.271,4.607 10.271,10.269 l 0,94.641 C 10.999,-4.607 6.391,0 0.728,0 L 0,0 Z m 0.728,-120.849 -0.728,0 c -8.788,0 -15.938,7.15 -15.938,15.938 l 0,94.641 c 0,8.789 7.15,15.939 15.938,15.939 l 0.728,0 c 8.789,0 15.939,-7.15 15.939,-15.939 l 0,-94.641 c 0,-8.788 -7.15,-15.938 -15.939,-15.938"
         style="fill:#58595b;fill-opacity:1;fill-rule:nonzero;stroke:none"
         id="path4912"
         inkscape:connector-curvature="0" />
    </g>
    <g
       id="g4914"
       transform="matrix(1.25,0,0,-1.25,426.52695,605.27788)">
      <path
         d="m 0,0 c -4.1,0 -7.436,-3.336 -7.436,-7.437 l 0,-74.175 c 0,-4.101 3.336,-7.437 7.436,-7.437 l 0.571,0 c 4.1,0 7.436,3.336 7.436,7.437 l 0,74.175 C 8.007,-3.336 4.671,0 0.571,0 L 0,0 Z m 0.571,-94.718 -0.571,0 c -7.226,0 -13.104,5.879 -13.104,13.106 l 0,74.175 c 0,7.227 5.878,13.106 13.104,13.106 l 0.571,0 c 7.226,0 13.105,-5.879 13.105,-13.106 l 0,-74.175 c 0,-7.227 -5.879,-13.106 -13.105,-13.106"
         style="fill:#58595b;fill-opacity:1;fill-rule:nonzero;stroke:none"
         id="path4916"
         inkscape:connector-curvature="0" />
    </g>
    <path
       d="m 379.6791,648.59613 -136.50125,0 0,-7.08625 136.50125,0 0,7.08625 z"
       style="fill:#58595b;fill-opacity:1;fill-rule:nonzero;stroke:none"
       id="path4918"
       inkscape:connector-curvature="0" />
    <path
       d="m 379.6791,679.58238 -136.50125,0 0,-7.08625 136.50125,0 0,7.08625 z"
       style="fill:#58595b;fill-opacity:1;fill-rule:nonzero;stroke:none"
       id="path4920"
       inkscape:connector-curvature="0" />
  </g>
</svg>
